Change Component Designator: OldDesignator=C? NewDesignator=C2
Change Component Designator: OldDesignator=F? NewDesignator=F1
Change Component Designator: OldDesignator=FER? NewDesignator=FER1
Change Component Designator: OldDesignator=TVS? NewDesignator=TVS1
Added Pin To Net: NetName=NetD1_A Pin=F1-2
Added Pin To Net: NetName=NetD1_A Pin=TVS1-2
Added Net: Name=NetD1_A
Added Pin To Net: NetName=NetD1_K Pin=FER1-1
Added Net: Name=NetD1_K
