Added Component: Designator=D1(SS14L)
Add component (AddParameter): Name = "DC Reverse Voltage"; Value = "40 V"; VariantName = "[No Variations]"
Add component (AddParameter): Name = "Forward voltage @ If"; Value = "550mV"; VariantName = "[No Variations]"
Add component (AddParameter): Name = "Manufacturer"; Value = "Taiwan Semiconductor Corporation"; VariantName = "[No Variations]"
Add component (AddParameter): Name = "Manufacturer Part Number"; Value = "SS14L"; VariantName = "[No Variations]"
Add component (AddParameter): Name = "Package"; Value = "DO-219AB"; VariantName = "[No Variations]"
Add component (AddParameter): Name = "Power"; Value = "/"; VariantName = "[No Variations]"
Add component (AddParameter): Name = "Supplier"; Value = "Digi-Key"; VariantName = "[No Variations]"
Add component (AddParameter): Name = "Supplier Part Number"; Value = "1801-SS14LCT-ND"; VariantName = "[No Variations]"
Add component (AddParameter): Name = "Type"; Value = "Schottky"; VariantName = "[No Variations]"
Added Pin To Net: NetName=NetD1_A Pin=D1-A
Added Pin To Net: NetName=NetD1_K Pin=D1-K
