Change Physical Footprint: Designator=C1 Old Footprint=CAP_0805 New Footprint=CAP_0805
Change Physical Footprint: Designator=C2 Old Footprint=TCAP_2917 New Footprint=TCAP_2917
Change Physical Footprint: Designator=C3 Old Footprint=CAP_0805 New Footprint=CAP_0805
Change Physical Footprint: Designator=C4 Old Footprint=CAP_0603 New Footprint=CAP_0603
Change Physical Footprint: Designator=C5 Old Footprint=CAP_0603 New Footprint=CAP_0603
Change Physical Footprint: Designator=C6 Old Footprint=CAP_0603 New Footprint=CAP_0603
Change Physical Footprint: Designator=D1 Old Footprint=SS14L New Footprint=SS14L
Change Physical Footprint: Designator=DH1 Old Footprint=M4_Distancer_Hole New Footprint=M4_Distancer_Hole
Change Physical Footprint: Designator=DH2 Old Footprint=M4_Distancer_Hole New Footprint=M4_Distancer_Hole
Change Physical Footprint: Designator=DH3 Old Footprint=M4_Distancer_Hole New Footprint=M4_Distancer_Hole
Change Physical Footprint: Designator=DH4 Old Footprint=M4_Distancer_Hole New Footprint=M4_Distancer_Hole
Change Physical Footprint: Designator=F1 Old Footprint=FUSE_0603 New Footprint=FUSE_0603
Change Physical Footprint: Designator=FER1 Old Footprint=FER_1206 New Footprint=FER_1206
Change Physical Footprint: Designator=IC1 Old Footprint=8-DIP gullwing New Footprint=8-DIP gullwing
Change Physical Footprint: Designator=IC2 Old Footprint=16-SOIC New Footprint=16-SOIC
Change Physical Footprint: Designator=IC4 Old Footprint=8-SMD New Footprint=8-SMD
Change Physical Footprint: Designator=LED1 Old Footprint=LED_0603 New Footprint=LED_0603
Change Physical Footprint: Designator=LED_12V_PRT Old Footprint=LED_0603 New Footprint=LED_0603
Change Physical Footprint: Designator=Q1 Old Footprint=SOT-23 New Footprint=SOT-23
Change Physical Footprint: Designator=R1 Old Footprint=RES_0603 New Footprint=RES_0603
Change Physical Footprint: Designator=R2 Old Footprint=RES_0603 New Footprint=RES_0603
Change Physical Footprint: Designator=R3 Old Footprint=RES_0603 New Footprint=RES_0603
Change Physical Footprint: Designator=R4 Old Footprint=RES_0603 New Footprint=RES_0603
Change Physical Footprint: Designator=R5 Old Footprint=RES_0603 New Footprint=RES_0603
Change Physical Footprint: Designator=R6 Old Footprint=RES_0603 New Footprint=RES_0603
Change Physical Footprint: Designator=R7 Old Footprint=RES_0603 New Footprint=RES_0603
Change Physical Footprint: Designator=R8 Old Footprint=RES_0603 New Footprint=RES_0603
Change Physical Footprint: Designator=R9 Old Footprint=RES_0603 New Footprint=RES_0603
Change Physical Footprint: Designator=R10 Old Footprint=RES_0603 New Footprint=RES_0603
Change Physical Footprint: Designator=R11 Old Footprint=RES_0603 New Footprint=RES_0603
Change Physical Footprint: Designator=R12 Old Footprint=RES_0603 New Footprint=RES_0603
Change Physical Footprint: Designator=R14 Old Footprint=RES_0603 New Footprint=RES_0603
Change Physical Footprint: Designator=R15 Old Footprint=RES_0603 New Footprint=RES_0603
Change Physical Footprint: Designator=R16 Old Footprint=RES_0603 New Footprint=RES_0603
Change Physical Footprint: Designator=R17 Old Footprint=RES_0603 New Footprint=RES_0603
Change Physical Footprint: Designator=TP_12V_PRT Old Footprint=Testpoint_SMD New Footprint=Testpoint_SMD
Change Physical Footprint: Designator=TVS1 Old Footprint=DO214AA New Footprint=DO214AA
Change Physical Footprint: Designator=X1 Old Footprint=CONN_MATE-N-LOCK_VERT_1x2M New Footprint=CONN_MATE-N-LOCK_VERT_1x2M
Change Physical Footprint: Designator=X2 Old Footprint=CONN_MATE-N-LOCK_VERT_1x2M New Footprint=CONN_MATE-N-LOCK_VERT_1x2M
Change Physical Footprint: Designator=X3 Old Footprint=CONN_MATE-N-LOCK_VERT_2x2M New Footprint=CONN_MATE-N-LOCK_VERT_2x2M
Change Physical Footprint: Designator=X4 Old Footprint=CONN_HEADER_M_1x6 New Footprint=CONN_HEADER_M_1x6
Change Physical Footprint: Designator=X5 Old Footprint=CONN_HEADER_M_1x6 New Footprint=CONN_HEADER_M_1x6
