Change Component Designator: OldDesignator= NewDesignator=DH1
Change Component Designator: OldDesignator= NewDesignator=DH2
Change Component Designator: OldDesignator= NewDesignator=DH3
Change Component Designator: OldDesignator= NewDesignator=DH4
Change Component Designator: OldDesignator= NewDesignator=TP_12V_PRT
Added Component: Designator=LED1(LED_0603)
Add component (AddParameter): Name = "Brightness"; Value = "18-180mcd"; VariantName = "[No Variations]"
Add component (AddParameter): Name = "Color"; Value = "Red"; VariantName = "[No Variations]"
Add component (AddParameter): Name = "Current"; Value = "20mA"; VariantName = "[No Variations]"
Add component (AddParameter): Name = "Forward Voltage"; Value = "1.6-2.4V"; VariantName = "[No Variations]"
Add component (AddParameter): Name = "Manufacturer"; Value = "LITEON"; VariantName = "[No Variations]"
Add component (AddParameter): Name = "Manufacturer Part Number"; Value = "LTST-C190KRKT"; VariantName = "[No Variations]"
Add component (AddParameter): Name = "Package"; Value = "0603"; VariantName = "[No Variations]"
Add component (AddParameter): Name = "Supplier"; Value = "M&G Electronics"; VariantName = "[No Variations]"
Add component (AddParameter): Name = "Supplier Part Number"; Value = "OLESMD-0603CRU"; VariantName = "[No Variations]"
Added Pin To Net: NetName=NetLED1_A Pin=LED1-A
Added Pin To Net: NetName=GND Pin=LED1-K
