Removed Pin From Net: NetName=HV+ Pin=X5-1
Change Component Footprint: Designator=DH1 Old Footprint=M3_Hole New Footprint=M4_Distancer_Hole
Change Component Footprint: Designator=DH2 Old Footprint=M3_Hole New Footprint=M4_Distancer_Hole
Change Component Footprint: Designator=DH3 Old Footprint=M3_Hole New Footprint=M4_Distancer_Hole
Change Component Footprint: Designator=DH4 Old Footprint=M3_Hole New Footprint=M4_Distancer_Hole
Change Component Comment : Designator=DH1 Old Comment=M3_Distancer_Hole_3.2mm New Comment=M4_Distancer_Hole_4.2mm
Change Component Comment : Designator=DH2 Old Comment=M3_Distancer_Hole_3.2mm New Comment=M4_Distancer_Hole_4.2mm
Change Component Comment : Designator=DH3 Old Comment=M3_Distancer_Hole_3.2mm New Comment=M4_Distancer_Hole_4.2mm
Change Component Comment : Designator=DH4 Old Comment=M3_Distancer_Hole_3.2mm New Comment=M4_Distancer_Hole_4.2mm
Change Component Designator: OldDesignator=LED_12V NewDesignator=LED_12V_PRT
Change Component Designator: OldDesignator=TP_12V NewDesignator=TP_12V_PRT
Added Pin To Net: NetName=HV_12V Pin=X5-1
