Removed Pin From Net: NetName=LV_12V_UNPR Pin=D1-A
Removed Pin From Net: NetName=LV_12V_UNPR Pin=TVS1-2
Added Component: Designator=F1(FUSE_0603)
Add component (AddParameter): Name = "Current"; Value = "500mA"; VariantName = "[No Variations]"
Add component (AddParameter): Name = "Manufacturer"; Value = "Panasonic Electronic Components"; VariantName = "[No Variations]"
Add component (AddParameter): Name = "Manufacturer Part Number"; Value = "ERB-RE0R50V"; VariantName = "[No Variations]"
Add component (AddParameter): Name = "Max Voltage"; Value = "32V"; VariantName = "[No Variations]"
Add component (AddParameter): Name = "Package"; Value = "0603"; VariantName = "[No Variations]"
Add component (AddParameter): Name = "Short Circuit Current"; Value = "/"; VariantName = "[No Variations]"
Add component (AddParameter): Name = "Supplier"; Value = "Digi-Key"; VariantName = "[No Variations]"
Add component (AddParameter): Name = "Supplier Part Number"; Value = "P15127CT-ND"; VariantName = "[No Variations]"
Added Pin To Net: NetName=LV_12V_UNPR Pin=F1-1
Added Pin To Net: NetName=NetD1_A Pin=D1-A
Added Pin To Net: NetName=NetD1_A Pin=F1-2
Added Pin To Net: NetName=NetD1_A Pin=TVS1-2
Added Net: Name=NetD1_A
