Removed Pin From Net: NetName=LV_12V_PRT Pin=Q2-3
Added Pin To Net: NetName=LV_12V_PRT Pin=Q2-2
Added Pin To Net: NetName=NetQ2_3 Pin=Q2-3
Added Pin To Net: NetName=NetQ2_3 Pin=R8-2
Added Net: Name=NetQ2_3
