Change Component Designator: Old Designator=DH? New Designator=DH1
Change Component Designator: Old Designator=DH? New Designator=DH2
Change Component Designator: Old Designator=DH? New Designator=DH3
Change Component Designator: Old Designator=DH? New Designator=DH4
Change Component Designator: Old Designator=R? New Designator=R9
Change Component Designator: Old Designator=R? New Designator=R13
Change Component Designator: Old Designator=R? New Designator=R20
