Removed Pin From Net: NetName=AIR+_CTRL Pin=xor-1
Removed Pin From Net: NetName=AIR+_STATE Pin=xor-2
Removed Pin From Net: NetName=AIR+_ISOK Pin=xor-3
Removed Pin From Net: NetName=AIR-_ISOK Pin=xor-4
Removed Pin From Net: NetName=AIR-_CTRL Pin=xor-5
Removed Pin From Net: NetName=AIR-_STATE Pin=xor-6
Change Component Designator: OldDesignator=555 NewDesignator=IC16
Added Pin To Net: NetName=AIR-_STATE Pin=xor-1
Added Pin To Net: NetName=AIR-_CTRL Pin=xor-2
Added Pin To Net: NetName=AIR-_ISOK Pin=xor-3
Added Pin To Net: NetName=AIR+_ISOK Pin=xor-4
Added Pin To Net: NetName=AIR+_STATE Pin=xor-5
Added Pin To Net: NetName=AIR+_CTRL Pin=xor-6
