Removed Pin From Net: NetName=LV_12V_PRT Pin=F3-1
Added Component: Designator=J1(JUMPER_SMD_FUSE_1206)
Added Pin To Net: NetName=LV_12V_UNPR Pin=J1-1
Added Pin To Net: NetName=LV_12V_PRT Pin=J1-2
Added Pin To Net: NetName=NetF3_1 Pin=F3-1
Added Pin To Net: NetName=NetF3_1 Pin=J1-COM
Added Net: Name=NetF3_1
