Change Physical Footprint: Designator=FID1 Old Footprint=FIDUCIAL New Footprint=FIDUCIAL
Change Physical Footprint: Designator=FID2 Old Footprint=FIDUCIAL New Footprint=FIDUCIAL
Change Physical Footprint: Designator=FID3 Old Footprint=FIDUCIAL New Footprint=FIDUCIAL
Change Physical Footprint: Designator=FID4 Old Footprint=FIDUCIAL New Footprint=FIDUCIAL
Change Physical Footprint: Designator=FID5 Old Footprint=FIDUCIAL New Footprint=FIDUCIAL
Change Physical Footprint: Designator=FID6 Old Footprint=FIDUCIAL New Footprint=FIDUCIAL
