Change Physical Footprint: Designator=555 Old Footprint=8-SOIC New Footprint=8-SOIC
Change Physical Footprint: Designator=and Old Footprint=14-SOIC New Footprint=14-SOIC
Change Physical Footprint: Designator=bat on Old Footprint=LED_0603 New Footprint=LED_0603
Change Physical Footprint: Designator=C1 Old Footprint=CAP_0805 New Footprint=CAP_0805
Change Physical Footprint: Designator=C2 Old Footprint=CAP_1206 New Footprint=CAP_1206
Change Physical Footprint: Designator=C3 Old Footprint=CAP_0603 New Footprint=CAP_0603
Change Physical Footprint: Designator=C4 Old Footprint=CAP_0603 New Footprint=CAP_0603
Change Physical Footprint: Designator=C5 Old Footprint=CAP_1206 New Footprint=CAP_1206
Change Physical Footprint: Designator=C6 Old Footprint=CAP_0603 New Footprint=CAP_0603
Change Physical Footprint: Designator=C7 Old Footprint=TCAP_2917 New Footprint=TCAP_2917
Change Physical Footprint: Designator=C8 Old Footprint=CAP_0603 New Footprint=CAP_0603
Change Physical Footprint: Designator=C9 Old Footprint=CAP_0603 New Footprint=CAP_0603
Change Physical Footprint: Designator=C10 Old Footprint=CAP_0805 New Footprint=CAP_0805
Change Physical Footprint: Designator=C11 Old Footprint=CAP_0603 New Footprint=CAP_0603
Change Physical Footprint: Designator=C12 Old Footprint=CAP_0603 New Footprint=CAP_0603
Change Physical Footprint: Designator=C13 Old Footprint=CAP_0603 New Footprint=CAP_0603
Change Physical Footprint: Designator=cmp Old Footprint=8-SOIC New Footprint=8-SOIC
Change Physical Footprint: Designator=D1 Old Footprint=SS14L New Footprint=SS14L
Change Physical Footprint: Designator=DH1 Old Footprint=M4_Distancer_Hole New Footprint=M4_Distancer_Hole
Change Physical Footprint: Designator=DH2 Old Footprint=M4_Distancer_Hole New Footprint=M4_Distancer_Hole
Change Physical Footprint: Designator=DH3 Old Footprint=M4_Distancer_Hole New Footprint=M4_Distancer_Hole
Change Physical Footprint: Designator=DH4 Old Footprint=M4_Distancer_Hole New Footprint=M4_Distancer_Hole
Change Physical Footprint: Designator=F1 Old Footprint=FUSE_0603 New Footprint=FUSE_0603
Change Physical Footprint: Designator=F2 Old Footprint=FUSE_0603 New Footprint=FUSE_0603
Change Physical Footprint: Designator=F14 Old Footprint=FUSE_0603 New Footprint=FUSE_0603
Change Physical Footprint: Designator=FER1 Old Footprint=FER_1206 New Footprint=FER_1206
Change Physical Footprint: Designator=ff Old Footprint=16-SOIC New Footprint=16-SOIC
Change Physical Footprint: Designator=from Old Footprint=CONN_MATE-N-LOCK_VERT_2x4M New Footprint=CONN_MATE-N-LOCK_VERT_2x4M
Change Physical Footprint: Designator=green error Old Footprint=LED_0603 New Footprint=LED_0603
Change Physical Footprint: Designator=inv on Old Footprint=LED_0603 New Footprint=LED_0603
Change Physical Footprint: Designator=LED1 Old Footprint=LED_0603 New Footprint=LED_0603
Change Physical Footprint: Designator=led 12v Old Footprint=LED_0603 New Footprint=LED_0603
Change Physical Footprint: Designator=not Old Footprint=14-SOIC New Footprint=14-SOIC
Change Physical Footprint: Designator=or Old Footprint=14-SOIC New Footprint=14-SOIC
Change Physical Footprint: Designator=or Old Footprint=14-SOIC New Footprint=14-SOIC
Change Physical Footprint: Designator=Q1 Old Footprint=SOT-23 New Footprint=SOT-23
Change Physical Footprint: Designator=Q2 Old Footprint=SOT-23 New Footprint=SOT-23
Change Physical Footprint: Designator=Q3 Old Footprint=SOT-23 New Footprint=SOT-23
Change Physical Footprint: Designator=Q4 Old Footprint=SOT-23 New Footprint=SOT-23
Change Physical Footprint: Designator=Q5 Old Footprint=SOT-23 New Footprint=SOT-23
Change Physical Footprint: Designator=Q6 Old Footprint=SOT-23 New Footprint=SOT-23
Change Physical Footprint: Designator=Q7 Old Footprint=SOT-23 New Footprint=SOT-23
Change Physical Footprint: Designator=Q8 Old Footprint=SOT-23 New Footprint=SOT-23
Change Physical Footprint: Designator=Q9 Old Footprint=SOT-23 New Footprint=SOT-23
Change Physical Footprint: Designator=R1 Old Footprint=RES_0603 New Footprint=RES_0603
Change Physical Footprint: Designator=R2 Old Footprint=RES_0603 New Footprint=RES_0603
Change Physical Footprint: Designator=R3 Old Footprint=RES_0603 New Footprint=RES_0603
Change Physical Footprint: Designator=R4 Old Footprint=RES_0603 New Footprint=RES_0603
Change Physical Footprint: Designator=R5 Old Footprint=RES_0603 New Footprint=RES_0603
Change Physical Footprint: Designator=R6 Old Footprint=RES_0603 New Footprint=RES_0603
Change Physical Footprint: Designator=R7 Old Footprint=RES_0603 New Footprint=RES_0603
Change Physical Footprint: Designator=R8 Old Footprint=RES_0603 New Footprint=RES_0603
Change Physical Footprint: Designator=R9 Old Footprint=RES_0603 New Footprint=RES_0603
Change Physical Footprint: Designator=R10 Old Footprint=RES_0805 New Footprint=RES_0805
Change Physical Footprint: Designator=R11 Old Footprint=RES_0603 New Footprint=RES_0603
Change Physical Footprint: Designator=R12 Old Footprint=RES_0603 New Footprint=RES_0603
Change Physical Footprint: Designator=R13 Old Footprint=RES_0603 New Footprint=RES_0603
Change Physical Footprint: Designator=R14 Old Footprint=RES_0603 New Footprint=RES_0603
Change Physical Footprint: Designator=R15 Old Footprint=RES_0603 New Footprint=RES_0603
Change Physical Footprint: Designator=R16 Old Footprint=RES_0603 New Footprint=RES_0603
Change Physical Footprint: Designator=R17 Old Footprint=RES_0603 New Footprint=RES_0603
Change Physical Footprint: Designator=R18 Old Footprint=RES_0603 New Footprint=RES_0603
Change Physical Footprint: Designator=R19 Old Footprint=RES_0603 New Footprint=RES_0603
Change Physical Footprint: Designator=R20 Old Footprint=RES_0603 New Footprint=RES_0603
Change Physical Footprint: Designator=R21 Old Footprint=RES_0603 New Footprint=RES_0603
Change Physical Footprint: Designator=R22 Old Footprint=RES_0603 New Footprint=RES_0603
Change Physical Footprint: Designator=R23 Old Footprint=RES_0603 New Footprint=RES_0603
Change Physical Footprint: Designator=R24 Old Footprint=RES_0603 New Footprint=RES_0603
Change Physical Footprint: Designator=R25 Old Footprint=RES_0603 New Footprint=RES_0603
Change Physical Footprint: Designator=R26 Old Footprint=RES_0603 New Footprint=RES_0603
Change Physical Footprint: Designator=R27 Old Footprint=RES_0603 New Footprint=RES_0603
Change Physical Footprint: Designator=R28 Old Footprint=RES_0603 New Footprint=RES_0603
Change Physical Footprint: Designator=R29 Old Footprint=RES_0603 New Footprint=RES_0603
Change Physical Footprint: Designator=R30 Old Footprint=RES_0603 New Footprint=RES_0603
Change Physical Footprint: Designator=R31 Old Footprint=RES_0603 New Footprint=RES_0603
Change Physical Footprint: Designator=R32 Old Footprint=RES_0603 New Footprint=RES_0603
Change Physical Footprint: Designator=R33 Old Footprint=RES_0603 New Footprint=RES_0603
Change Physical Footprint: Designator=R34 Old Footprint=RES_0603 New Footprint=RES_0603
Change Physical Footprint: Designator=R35 Old Footprint=RES_0603 New Footprint=RES_0603
Change Physical Footprint: Designator=R36 Old Footprint=RES_0603 New Footprint=RES_0603
Change Physical Footprint: Designator=R37 Old Footprint=RES_0603 New Footprint=RES_0603
Change Physical Footprint: Designator=R38 Old Footprint=RES_0603 New Footprint=RES_0603
Change Physical Footprint: Designator=R39 Old Footprint=RES_0603 New Footprint=RES_0603
Change Physical Footprint: Designator=R40 Old Footprint=RES_0603 New Footprint=RES_0603
Change Physical Footprint: Designator=R41 Old Footprint=RES_0603 New Footprint=RES_0603
Change Physical Footprint: Designator=R42 Old Footprint=RES_0603 New Footprint=RES_0603
Change Physical Footprint: Designator=R43 Old Footprint=RES_0603 New Footprint=RES_0603
Change Physical Footprint: Designator=R44 Old Footprint=RES_0603 New Footprint=RES_0603
Change Physical Footprint: Designator=relay = bat Old Footprint=LED_0603 New Footprint=LED_0603
Change Physical Footprint: Designator=relay err Old Footprint=LED_0603 New Footprint=LED_0603
Change Physical Footprint: Designator=to Old Footprint=CONN_MATE-N-LOCK_VERT_2x2M New Footprint=CONN_MATE-N-LOCK_VERT_2x2M
Change Physical Footprint: Designator=to disp Old Footprint=CONN_MATE-N-LOCK_VERT_2x2M New Footprint=CONN_MATE-N-LOCK_VERT_2x2M
Change Physical Footprint: Designator=tp Old Footprint=Testpoint_SMD New Footprint=Testpoint_SMD
Change Physical Footprint: Designator=tsal Old Footprint=LED_0603 New Footprint=LED_0603
Change Physical Footprint: Designator=TVS1 Old Footprint=DO214AA New Footprint=DO214AA
Change Physical Footprint: Designator=voltage Old Footprint=CONN_MATE-N-LOCK_VERT_2x2M New Footprint=CONN_MATE-N-LOCK_VERT_2x2M
Change Physical Footprint: Designator=xnor Old Footprint=14-SOIC New Footprint=14-SOIC
Change Physical Footprint: Designator=xor Old Footprint=14-SOIC New Footprint=14-SOIC
