Added Component: Designator=IC1(14-SOIC)
Add component (AddParameter): Name = "Class"; Value = "2 input OR"; VariantName = "[No Variations]"
Add component (AddParameter): Name = "Current Output High, Low"; Value = "2.25mA"; VariantName = "[No Variations]"
Add component (AddParameter): Name = "Logic Type"; Value = "OR"; VariantName = "[No Variations]"
Add component (AddParameter): Name = "Manufacturer"; Value = "Fairchild Semiconductor"; VariantName = "[No Variations]"
Add component (AddParameter): Name = "Manufacturer Part Number"; Value = "4071-SMD"; VariantName = "[No Variations]"
Add component (AddParameter): Name = "Number of circuits"; Value = "4"; VariantName = "[No Variations]"
Add component (AddParameter): Name = "Number of inputs"; Value = "2"; VariantName = "[No Variations]"
Add component (AddParameter): Name = "Package"; Value = "14-SOIC"; VariantName = "[No Variations]"
Add component (AddParameter): Name = "Supplier"; Value = "Kelco"; VariantName = "[No Variations]"
Add component (AddParameter): Name = "Supplier Part Number"; Value = "6767"; VariantName = "[No Variations]"
Add component (AddParameter): Name = "Voltage Supply"; Value = "3-15V"; VariantName = "[No Variations]"
Added Component: Designator=IC4(14-SOIC)
Add component (AddParameter): Name = "Class"; Value = "2 input OR"; VariantName = "[No Variations]"
Add component (AddParameter): Name = "Current Output High, Low"; Value = "2.25mA"; VariantName = "[No Variations]"
Add component (AddParameter): Name = "Logic Type"; Value = "OR"; VariantName = "[No Variations]"
Add component (AddParameter): Name = "Manufacturer"; Value = "Fairchild Semiconductor"; VariantName = "[No Variations]"
Add component (AddParameter): Name = "Manufacturer Part Number"; Value = "4071-SMD"; VariantName = "[No Variations]"
Add component (AddParameter): Name = "Number of circuits"; Value = "4"; VariantName = "[No Variations]"
Add component (AddParameter): Name = "Number of inputs"; Value = "2"; VariantName = "[No Variations]"
Add component (AddParameter): Name = "Package"; Value = "14-SOIC"; VariantName = "[No Variations]"
Add component (AddParameter): Name = "Supplier"; Value = "Kelco"; VariantName = "[No Variations]"
Add component (AddParameter): Name = "Supplier Part Number"; Value = "6767"; VariantName = "[No Variations]"
Add component (AddParameter): Name = "Voltage Supply"; Value = "3-15V"; VariantName = "[No Variations]"
Added Component: Designator=IC5(8-SOIC)
Add component (AddParameter): Name = "Class"; Value = "General Purpose Comparator"; VariantName = "[No Variations]"
Add component (AddParameter): Name = "Current Output"; Value = "18mA @ 5V"; VariantName = "[No Variations]"
Add component (AddParameter): Name = "Manufacturer"; Value = "STMicroelectronics"; VariantName = "[No Variations]"
Add component (AddParameter): Name = "Manufacturer Part Number"; Value = "LM393ADT"; VariantName = "[No Variations]"
Add component (AddParameter): Name = "Number of Circuits"; Value = "2"; VariantName = "[No Variations]"
Add component (AddParameter): Name = "Output type"; Value = "CMOS, TTL, ECL, DTL, MOS, Open Collector"; VariantName = "[No Variations]"
Add component (AddParameter): Name = "Package"; Value = "8-SOIC"; VariantName = "[No Variations]"
Add component (AddParameter): Name = "Supplier"; Value = "Digi-key"; VariantName = "[No Variations]"
Add component (AddParameter): Name = "Supplier Part Number"; Value = "497-4267-1-ND"; VariantName = "[No Variations]"
Add component (AddParameter): Name = "Voltage Supply"; Value = "2 V - 36 V"; VariantName = "[No Variations]"
Added Pin To Net: NetName=nAIR+_STATE Pin=IC1-1
Added Pin To Net: NetName=nAIR-_STATE Pin=IC1-2
Added Pin To Net: NetName=OR_OUT1 Pin=IC1-3
Added Pin To Net: NetName=OR_OUT2 Pin=IC1-4
Added Pin To Net: NetName=nBAT_ON Pin=IC1-5
Added Pin To Net: NetName=nPRE_STATE Pin=IC1-6
Added Pin To Net: NetName=GND Pin=IC1-7
Added Pin To Net: NetName=OR_OUT2 Pin=IC1-8
Added Pin To Net: NetName=OR_OUT1 Pin=IC1-9
Added Pin To Net: NetName=OR_OUT3 Pin=IC1-10
Added Pin To Net: NetName=NetIC1_11 Pin=IC1-11
Added Pin To Net: NetName=OR_OUT3 Pin=IC1-12
Added Pin To Net: NetName=GREEN_ISOK_END Pin=IC1-13
Added Pin To Net: NetName=LV_12V_PRT Pin=IC1-14
Added Pin To Net: NetName=NetIC4_1 Pin=IC4-1
Added Pin To Net: NetName=NetIC4_2 Pin=IC4-2
Added Pin To Net: NetName=AIR+_OR_PRE_CTRL Pin=IC4-3
Added Pin To Net: NetName=GND Pin=IC4-7
Added Pin To Net: NetName=GREEN_ISOK_END Pin=IC4-11
Added Pin To Net: NetName=GREEN_ISOK Pin=IC4-12
Added Pin To Net: NetName=TSAL_GREEN_ERR_DELAY Pin=IC4-13
Added Pin To Net: NetName=LV_12V_PRT Pin=IC4-14
Added Pin To Net: NetName=GND Pin=IC5-4
Added Pin To Net: NetName=NetIC5_5 Pin=IC5-5
Added Pin To Net: NetName=NetC10_2 Pin=IC5-6
Added Pin To Net: NetName=TSAL_GREEN_ERR_DELAY Pin=IC5-7
Added Pin To Net: NetName=LV_12V_PRT Pin=IC5-8
