Change component parameters: Designator = "TVS1" ("TVS1"); Footprint = "DO214AA"; UniqueID = "\KZCMHZYF" ("\KZCMHZYF")
Change component parameters (AddParameter): Name = "Block voltage"; Value = "31.1V"; VariantName = "[No Variations]"
Change component parameters (AddParameter): Name = "ComponentLink1Description"; Value = "Datasheet"; VariantName = "[No Variations]"
Change component parameters (AddParameter): Name = "ComponentLink1URL"; Value = "https://www.eaton.com/content/dam/eaton/products/electronic-components/resources/data-sheet/eaton-10bj-tvs-diode-power-esd-suppressor-data-sheet.pdf"; VariantName = "[No Variations]"
Change component parameters (AddParameter): Name = "Manufacturer"; Value = "Eaton - Electronics Division"; VariantName = "[No Variations]"
Change component parameters (AddParameter): Name = "Manufacturer part number"; Value = "10BJ28A"; VariantName = "[No Variations]"
Change component parameters (AddParameter): Name = "Power"; Value = "1000W (1kW)"; VariantName = "[No Variations]"
Change component parameters (AddParameter): Name = "Supplier"; Value = "DigiKey"; VariantName = "[No Variations]"
Change component parameters (AddParameter): Name = "Supplier part number"; Value = "283-10BJ28ACT-ND"; VariantName = "[No Variations]"
