Change Component Designator: Old Designator=C? New Designator=C1
Change Component Designator: Old Designator=IC? New Designator=IC1
Change Component Designator: Old Designator=IC? New Designator=IC2
Change Component Designator: Old Designator=R? New Designator=R1
