Removed Pin From Net: NetName=AIR-_STATE Pin=not-1
Removed Pin From Net: NetName=nAIR-_STATE Pin=not-2
Removed Pin From Net: NetName=PRE_STATE Pin=not-3
Removed Pin From Net: NetName=nPRE_STATE Pin=not-4
Removed Pin From Net: NetName=nAIR+_STATE Pin=not-8
Removed Pin From Net: NetName=AIR+_STATE Pin=not-9
Added Pin To Net: NetName=AIR+_STATE Pin=not-1
Added Pin To Net: NetName=nAIR+_STATE Pin=not-2
Added Pin To Net: NetName=AIR-_STATE Pin=not-3
Added Pin To Net: NetName=nAIR-_STATE Pin=not-4
Added Pin To Net: NetName=PRE_STATE Pin=not-5
Added Pin To Net: NetName=nPRE_STATE Pin=not-6
