G04*
G04 #@! TF.GenerationSoftware,Altium Limited,Altium Designer,20.0.13 (296)*
G04*
G04 Layer_Physical_Order=4*
G04 Layer_Color=16711680*
%FSLAX25Y25*%
%MOIN*%
G70*
G01*
G75*
%ADD11C,0.01000*%
%ADD34R,0.04331X0.03543*%
%ADD35R,0.03543X0.03543*%
%ADD36R,0.03543X0.03543*%
%ADD37R,0.03937X0.02756*%
%ADD38R,0.03543X0.02756*%
%ADD39R,0.02756X0.03937*%
%ADD40R,0.02756X0.03543*%
%ADD46C,0.02000*%
%ADD47C,0.03000*%
%ADD49C,0.23622*%
%ADD50C,0.07087*%
%ADD51C,0.16299*%
%ADD52C,0.02756*%
%ADD53R,0.09055X0.09843*%
%ADD54R,0.03543X0.04331*%
%ADD55R,0.04921X0.03937*%
%ADD56R,0.04724X0.05512*%
%ADD57R,0.07874X0.10236*%
G36*
X237268Y188056D02*
X236581Y186936D01*
X235810Y185073D01*
X235339Y183113D01*
X235181Y181102D01*
X235339Y179092D01*
X235810Y177131D01*
X236581Y175268D01*
X237635Y173549D01*
X238945Y172016D01*
X240478Y170706D01*
X242197Y169652D01*
X244060Y168881D01*
X246021Y168410D01*
X248031Y168252D01*
X250042Y168410D01*
X252003Y168881D01*
X253866Y169652D01*
X254985Y170339D01*
X261934Y163391D01*
Y153532D01*
X260934Y152933D01*
X260046Y153407D01*
X258321Y153931D01*
X256528Y154107D01*
X254734Y153931D01*
X253009Y153407D01*
X251420Y152558D01*
X250026Y151414D01*
X248883Y150021D01*
X248033Y148432D01*
X247510Y146707D01*
X247334Y144913D01*
X247510Y143120D01*
X248033Y141395D01*
X248883Y139805D01*
X250026Y138412D01*
X251420Y137269D01*
X253009Y136419D01*
X254734Y135896D01*
X256528Y135720D01*
X258321Y135896D01*
X260046Y136419D01*
X260934Y136894D01*
X261934Y136295D01*
Y125461D01*
X241370D01*
X241209Y125593D01*
Y143437D01*
X241131Y143827D01*
X240910Y144158D01*
X240579Y144379D01*
X240189Y144457D01*
X219618D01*
X219228Y144379D01*
X218897Y144158D01*
X218676Y143827D01*
X218599Y143437D01*
Y118957D01*
X217675Y118574D01*
X214827Y121422D01*
X214496Y121643D01*
X214106Y121720D01*
X203476D01*
X203086Y121643D01*
X202755Y121422D01*
X202534Y121091D01*
X202457Y120701D01*
Y119339D01*
X197358D01*
Y118606D01*
X195717D01*
Y119324D01*
X190024D01*
X189386Y119324D01*
X188386Y119324D01*
X186358D01*
Y116552D01*
Y113780D01*
X188386D01*
X189024Y113780D01*
X190024Y113780D01*
X195717D01*
Y114528D01*
X197358D01*
Y113795D01*
X202457D01*
Y78476D01*
X202534Y78086D01*
X202755Y77755D01*
X203086Y77534D01*
X203476Y77457D01*
X219520D01*
X219910Y77534D01*
X220241Y77755D01*
X220462Y78086D01*
X220539Y78476D01*
X220539Y92366D01*
X220602Y92417D01*
X242650D01*
X243040Y92495D01*
X243371Y92716D01*
X243592Y93047D01*
X243669Y93437D01*
Y101311D01*
X243592Y101701D01*
X243371Y102032D01*
X243040Y102253D01*
X242650Y102331D01*
X230382D01*
Y106880D01*
X231373Y107023D01*
X231594Y106692D01*
X233759Y104527D01*
X234090Y104306D01*
X234480Y104228D01*
X250391D01*
Y99744D01*
X255918D01*
Y99244D01*
X256418D01*
Y93323D01*
X261446D01*
X261934Y92525D01*
Y52870D01*
X260934Y52336D01*
X260628Y52540D01*
X259700Y52724D01*
X258772Y52540D01*
X257986Y52014D01*
X257460Y51228D01*
X257276Y50300D01*
X257460Y49372D01*
X257986Y48586D01*
X258772Y48060D01*
X259700Y47875D01*
X260628Y48060D01*
X260934Y48264D01*
X261934Y47730D01*
Y41343D01*
X252352Y31762D01*
X252003Y31907D01*
X250042Y32377D01*
X248031Y32536D01*
X246021Y32377D01*
X244060Y31907D01*
X242197Y31135D01*
X240478Y30081D01*
X238945Y28772D01*
X237635Y27239D01*
X236581Y25519D01*
X235810Y23656D01*
X235339Y21695D01*
X235181Y19685D01*
X235339Y17675D01*
X235810Y15714D01*
X235955Y15364D01*
X231393Y10802D01*
X229653Y12542D01*
X228992Y12984D01*
X228211Y13139D01*
X220024D01*
Y13872D01*
X215119D01*
X214481Y13872D01*
X213481Y13872D01*
X211847D01*
Y11100D01*
Y8328D01*
X213481D01*
X214119Y8328D01*
X215119Y8328D01*
X220024D01*
Y9061D01*
X227366D01*
X228509Y7918D01*
X226501Y5910D01*
X185947D01*
X185520Y6814D01*
X185648Y6971D01*
X186498Y8560D01*
X187021Y10285D01*
X187198Y12079D01*
X187021Y13872D01*
X186498Y15597D01*
X185648Y17187D01*
X184505Y18580D01*
X183112Y19723D01*
X181522Y20573D01*
X179798Y21096D01*
X178004Y21273D01*
X176210Y21096D01*
X174486Y20573D01*
X172896Y19723D01*
X171503Y18580D01*
X170360Y17187D01*
X169510Y15597D01*
X168987Y13872D01*
X168810Y12079D01*
X168987Y10285D01*
X169510Y8560D01*
X170360Y6971D01*
X170488Y6814D01*
X170061Y5910D01*
X141735D01*
X141307Y6814D01*
X141484Y7030D01*
X142334Y8619D01*
X142857Y10344D01*
X143034Y12138D01*
X142857Y13931D01*
X142334Y15656D01*
X141484Y17246D01*
X140341Y18639D01*
X138947Y19782D01*
X137358Y20632D01*
X135633Y21155D01*
X133840Y21332D01*
X132046Y21155D01*
X130321Y20632D01*
X128732Y19782D01*
X127339Y18639D01*
X126195Y17246D01*
X125346Y15656D01*
X124822Y13931D01*
X124646Y12138D01*
X124822Y10344D01*
X125346Y8619D01*
X126195Y7030D01*
X126372Y6814D01*
X125945Y5910D01*
X81201D01*
X80774Y6814D01*
X80983Y7069D01*
X81833Y8659D01*
X82356Y10384D01*
X82533Y12177D01*
X82356Y13971D01*
X81833Y15696D01*
X80983Y17285D01*
X79840Y18678D01*
X78446Y19822D01*
X76857Y20671D01*
X75132Y21194D01*
X73339Y21371D01*
X71545Y21194D01*
X69820Y20671D01*
X68231Y19822D01*
X66838Y18678D01*
X65694Y17285D01*
X64845Y15696D01*
X64321Y13971D01*
X64145Y12177D01*
X64321Y10384D01*
X64845Y8659D01*
X65694Y7069D01*
X65904Y6814D01*
X65476Y5910D01*
X41461D01*
X31834Y15538D01*
X31907Y15714D01*
X32377Y17675D01*
X32536Y19685D01*
X32377Y21695D01*
X31907Y23656D01*
X31135Y25519D01*
X30081Y27239D01*
X28772Y28772D01*
X27239Y30081D01*
X25519Y31135D01*
X23656Y31907D01*
X21695Y32377D01*
X19685Y32536D01*
X17675Y32377D01*
X15714Y31907D01*
X15538Y31834D01*
X13739Y33632D01*
Y39276D01*
X14472D01*
Y44181D01*
X14472Y44819D01*
X14472Y45819D01*
Y47453D01*
X11700D01*
X8928D01*
Y45819D01*
X8928Y45181D01*
X8928Y44181D01*
Y39857D01*
X7928Y39443D01*
X6028Y41343D01*
Y159453D01*
X15531Y168956D01*
X15714Y168881D01*
X17675Y168410D01*
X19685Y168252D01*
X21695Y168410D01*
X23656Y168881D01*
X25519Y169652D01*
X27239Y170706D01*
X28772Y172016D01*
X30081Y173549D01*
X31135Y175268D01*
X31907Y177131D01*
X32377Y179092D01*
X32536Y181102D01*
X32377Y183113D01*
X31907Y185073D01*
X31831Y185256D01*
X41461Y194887D01*
X75369D01*
X75626Y194476D01*
X75798Y193886D01*
X75374Y193252D01*
X75190Y192324D01*
X75374Y191396D01*
X75827Y190719D01*
X75686Y190305D01*
X75331Y189798D01*
X75200Y189824D01*
X74272Y189640D01*
X73486Y189114D01*
X72960Y188328D01*
X72776Y187400D01*
X72960Y186472D01*
X73486Y185686D01*
X74272Y185160D01*
X75200Y184976D01*
X76128Y185160D01*
X76914Y185686D01*
X77440Y186472D01*
X77624Y187400D01*
X77440Y188328D01*
X76988Y189005D01*
X77128Y189420D01*
X77483Y189926D01*
X77614Y189900D01*
X78542Y190084D01*
X79329Y190610D01*
X79854Y191396D01*
X80039Y192324D01*
X79854Y193252D01*
X79431Y193886D01*
X79603Y194476D01*
X79860Y194887D01*
X230438D01*
X237268Y188056D01*
D02*
G37*
G36*
X240189Y116567D02*
X219618D01*
Y143437D01*
X240189D01*
Y116567D01*
D02*
G37*
G36*
X262236Y124343D02*
Y105248D01*
X234480D01*
X232315Y107413D01*
Y111646D01*
X234382Y113713D01*
X239992D01*
X241370Y115091D01*
Y124441D01*
X262138D01*
X262236Y124343D01*
D02*
G37*
G36*
X242650Y93437D02*
X220602D01*
X220504Y93535D01*
Y101311D01*
X242650D01*
Y93437D01*
D02*
G37*
G36*
X218768Y116039D02*
X218897Y115846D01*
X219228Y115625D01*
X219618Y115547D01*
X229362D01*
Y102331D01*
X220504D01*
X220114Y102253D01*
X219882Y102098D01*
X219520D01*
Y101489D01*
X219484Y101311D01*
Y93535D01*
X219520Y93358D01*
X219520Y78476D01*
X203476D01*
Y120701D01*
X214106D01*
X218768Y116039D01*
D02*
G37*
%LPC*%
G36*
X99914Y193049D02*
X98987Y192864D01*
X98200Y192339D01*
X97674Y191552D01*
X97490Y190624D01*
X97674Y189697D01*
X98200Y188910D01*
X98987Y188384D01*
X99914Y188200D01*
X100842Y188384D01*
X101629Y188910D01*
X102154Y189697D01*
X102339Y190624D01*
X102154Y191552D01*
X101629Y192339D01*
X100842Y192864D01*
X99914Y193049D01*
D02*
G37*
G36*
X63914Y184049D02*
X62987Y183864D01*
X62200Y183339D01*
X61674Y182552D01*
X61490Y181624D01*
X61674Y180696D01*
X62200Y179910D01*
X62987Y179384D01*
X63914Y179200D01*
X64842Y179384D01*
X65629Y179910D01*
X66154Y180696D01*
X66339Y181624D01*
X66154Y182552D01*
X65629Y183339D01*
X64842Y183864D01*
X63914Y184049D01*
D02*
G37*
G36*
X113516Y172705D02*
X97472D01*
X97082Y172627D01*
X96815Y172448D01*
X95815Y172587D01*
X95690Y172587D01*
X93543D01*
Y169421D01*
X93043D01*
Y168921D01*
X90272D01*
Y166894D01*
X90272Y166256D01*
X90272Y165256D01*
X90272Y160338D01*
Y160327D01*
Y160327D01*
X90272Y160105D01*
X89893Y159949D01*
X89272Y159691D01*
X88319Y160644D01*
X87822Y160976D01*
X87237Y161092D01*
X70963D01*
X70814Y161314D01*
X70618Y161446D01*
X70497Y162567D01*
X70529Y162616D01*
X71023Y163355D01*
X71207Y164283D01*
X71023Y165210D01*
X70497Y165997D01*
X69710Y166523D01*
X68783Y166707D01*
X67855Y166523D01*
X67068Y165997D01*
X66945Y165812D01*
X65383D01*
X64797Y165696D01*
X64301Y165364D01*
X62919Y163981D01*
X62587Y163485D01*
X62471Y162900D01*
Y151918D01*
X62119Y151642D01*
X61471Y151303D01*
X61252Y151346D01*
X45209D01*
X44920Y151289D01*
X43920Y151327D01*
X43471Y151327D01*
X41649D01*
Y148161D01*
X41149D01*
Y147661D01*
X38377D01*
Y145634D01*
X38377Y144996D01*
X38377Y143996D01*
Y138303D01*
X43920D01*
Y138937D01*
X45390D01*
Y138205D01*
X50933D01*
Y142910D01*
X60835D01*
X61209Y142437D01*
X61427Y142073D01*
X61456Y141931D01*
X61371Y141500D01*
Y141000D01*
X60350D01*
Y135457D01*
X65106D01*
Y141000D01*
X65106Y141000D01*
X65339Y141904D01*
X65413Y142015D01*
X65529Y142600D01*
Y161945D01*
X66088Y162481D01*
X67068Y162568D01*
X67265Y162437D01*
X67385Y161316D01*
X67354Y161267D01*
X66860Y160528D01*
X66676Y159600D01*
X66860Y158672D01*
X67386Y157886D01*
X68172Y157360D01*
X69100Y157176D01*
X70028Y157360D01*
X70814Y157886D01*
X70913Y158034D01*
X86603D01*
X95390Y149247D01*
X95886Y148915D01*
X96472Y148799D01*
X112906D01*
X113491Y148915D01*
X113987Y149247D01*
X115955Y151215D01*
X116174Y151171D01*
X117101Y151356D01*
X117888Y151882D01*
X118414Y152668D01*
X118598Y153596D01*
X118414Y154524D01*
X117888Y155310D01*
X117442Y155608D01*
Y156618D01*
X117468D01*
Y162162D01*
X112712D01*
Y156618D01*
X114383D01*
Y155197D01*
X113934Y154524D01*
X113749Y153596D01*
X113793Y153378D01*
X112273Y151858D01*
X107811D01*
X107428Y152782D01*
X109413Y154766D01*
X109965Y155593D01*
X110159Y156569D01*
Y159390D01*
X109988Y160250D01*
Y162162D01*
X105232D01*
Y160250D01*
X105061Y159390D01*
Y157624D01*
X102068Y154631D01*
X101515Y153804D01*
X101321Y152828D01*
X101360Y152631D01*
X100726Y151858D01*
X97105D01*
X90400Y158563D01*
X90814Y159563D01*
X91036Y159563D01*
Y159563D01*
X91047Y159563D01*
X95815D01*
Y160394D01*
X97654D01*
Y159661D01*
X103197D01*
Y164268D01*
X113516D01*
X113906Y164345D01*
X114237Y164566D01*
X114458Y164897D01*
X114535Y165287D01*
Y171685D01*
X114458Y172075D01*
X114237Y172406D01*
X113906Y172627D01*
X113516Y172705D01*
D02*
G37*
G36*
X92543Y172587D02*
X90272D01*
Y169921D01*
X92543D01*
Y172587D01*
D02*
G37*
G36*
X211831Y157580D02*
Y153563D01*
X215847D01*
X215757Y154249D01*
X215299Y155354D01*
X214571Y156303D01*
X213622Y157032D01*
X212517Y157489D01*
X211831Y157580D01*
D02*
G37*
G36*
X210831Y157580D02*
X210145Y157489D01*
X209039Y157032D01*
X208090Y156303D01*
X207362Y155354D01*
X206904Y154249D01*
X206814Y153563D01*
X210831D01*
Y157580D01*
D02*
G37*
G36*
X40649Y151327D02*
X38377D01*
Y148661D01*
X40649D01*
Y151327D01*
D02*
G37*
G36*
X215847Y152563D02*
X211831D01*
Y148546D01*
X212517Y148637D01*
X213622Y149094D01*
X214571Y149823D01*
X215299Y150772D01*
X215757Y151877D01*
X215847Y152563D01*
D02*
G37*
G36*
X210831D02*
X206814D01*
X206904Y151877D01*
X207362Y150772D01*
X208090Y149823D01*
X209039Y149094D01*
X210145Y148637D01*
X210831Y148546D01*
Y152563D01*
D02*
G37*
G36*
X227630Y157645D02*
X226444Y157489D01*
X225339Y157032D01*
X224390Y156303D01*
X223661Y155354D01*
X223204Y154249D01*
X223047Y153063D01*
X223204Y151877D01*
X223661Y150772D01*
X224390Y149823D01*
X225339Y149094D01*
X226444Y148637D01*
X227630Y148480D01*
X228816Y148637D01*
X229921Y149094D01*
X230870Y149823D01*
X231598Y150772D01*
X232056Y151877D01*
X232212Y153063D01*
X232056Y154249D01*
X231598Y155354D01*
X230870Y156303D01*
X229921Y157032D01*
X228816Y157489D01*
X227630Y157645D01*
D02*
G37*
G36*
X136300Y150024D02*
X135372Y149840D01*
X134586Y149314D01*
X134060Y148528D01*
X133876Y147600D01*
X134060Y146672D01*
X134586Y145886D01*
X135372Y145360D01*
X136300Y145176D01*
X137228Y145360D01*
X138014Y145886D01*
X138540Y146672D01*
X138725Y147600D01*
X138540Y148528D01*
X138014Y149314D01*
X137228Y149840D01*
X136300Y150024D01*
D02*
G37*
G36*
X174800Y146825D02*
X173872Y146640D01*
X173086Y146114D01*
X172560Y145328D01*
X172376Y144400D01*
X172560Y143472D01*
X173086Y142686D01*
X173872Y142160D01*
X174800Y141975D01*
X175728Y142160D01*
X176514Y142686D01*
X177040Y143472D01*
X177225Y144400D01*
X177040Y145328D01*
X176514Y146114D01*
X175728Y146640D01*
X174800Y146825D01*
D02*
G37*
G36*
X211331Y141346D02*
X210145Y141190D01*
X209039Y140732D01*
X208090Y140004D01*
X207362Y139055D01*
X206904Y137950D01*
X206748Y136764D01*
X206904Y135578D01*
X207362Y134473D01*
X208090Y133523D01*
X209039Y132795D01*
X210145Y132337D01*
X211331Y132181D01*
X212517Y132337D01*
X213622Y132795D01*
X214571Y133523D01*
X215299Y134473D01*
X215757Y135578D01*
X215913Y136764D01*
X215757Y137950D01*
X215299Y139055D01*
X214571Y140004D01*
X213622Y140732D01*
X212517Y141190D01*
X211331Y141346D01*
D02*
G37*
G36*
X185100Y129225D02*
X184172Y129040D01*
X183386Y128514D01*
X182860Y127728D01*
X182676Y126800D01*
X182860Y125872D01*
X183386Y125086D01*
X184172Y124560D01*
X185100Y124375D01*
X186028Y124560D01*
X186814Y125086D01*
X187340Y125872D01*
X187524Y126800D01*
X187340Y127728D01*
X186814Y128514D01*
X186028Y129040D01*
X185100Y129225D01*
D02*
G37*
G36*
X132315Y145852D02*
X115189D01*
X114604Y145736D01*
X114108Y145404D01*
X97572Y128869D01*
X97241Y128373D01*
X97124Y127787D01*
Y126771D01*
X96939Y126647D01*
X96414Y125861D01*
X96229Y124933D01*
X96414Y124005D01*
X96846Y123359D01*
X96069Y122721D01*
X93204Y125586D01*
X93340Y126864D01*
X93469Y126950D01*
X93995Y127736D01*
X94179Y128664D01*
X93995Y129592D01*
X93469Y130378D01*
X93338Y130466D01*
Y134772D01*
X93577Y134931D01*
X94102Y135718D01*
X94287Y136646D01*
X94102Y137574D01*
X93577Y138360D01*
X92790Y138886D01*
X91862Y139070D01*
X90934Y138886D01*
X90148Y138360D01*
X89622Y137574D01*
X89438Y136646D01*
X89622Y135718D01*
X90148Y134931D01*
X90279Y134844D01*
Y132652D01*
X89279Y132238D01*
X88613Y132904D01*
X88117Y133236D01*
X87532Y133352D01*
X58546D01*
X57752Y134352D01*
X57797Y134579D01*
Y138228D01*
X57626Y139088D01*
Y141000D01*
X52870D01*
Y139088D01*
X52699Y138228D01*
Y135730D01*
X52028Y135099D01*
X51019Y135207D01*
X51014Y135214D01*
X50228Y135740D01*
X49300Y135924D01*
X48372Y135740D01*
X47586Y135214D01*
X47462Y135029D01*
X44938D01*
X44814Y135214D01*
X44028Y135740D01*
X43100Y135924D01*
X42172Y135740D01*
X41386Y135214D01*
X40860Y134428D01*
X40676Y133500D01*
X40542Y133291D01*
X39809Y132731D01*
X39214Y132849D01*
X38287Y132664D01*
X37500Y132139D01*
X36974Y131352D01*
X36790Y130424D01*
X36974Y129497D01*
X37500Y128710D01*
X38287Y128184D01*
X39214Y128000D01*
X40142Y128184D01*
X40929Y128710D01*
X41454Y129497D01*
X41639Y130424D01*
X41773Y130634D01*
X42505Y131194D01*
X43100Y131076D01*
X44028Y131260D01*
X44814Y131786D01*
X44938Y131971D01*
X47462D01*
X47586Y131786D01*
X47638Y131750D01*
X47671Y130526D01*
X47283Y129944D01*
X47089Y128969D01*
X47283Y127993D01*
X47835Y127166D01*
X48527Y126704D01*
X48726Y126137D01*
X48803Y125566D01*
X45219Y121981D01*
X44887Y121485D01*
X44771Y120900D01*
Y95457D01*
X28675Y79361D01*
X28343Y78865D01*
X28227Y78280D01*
Y70767D01*
X28041Y70644D01*
X27516Y69857D01*
X27331Y68929D01*
X27516Y68001D01*
X28041Y67215D01*
X28828Y66689D01*
X29756Y66505D01*
X30684Y66689D01*
X31470Y67215D01*
X31996Y68001D01*
X32181Y68929D01*
X31996Y69857D01*
X31862Y70058D01*
X31950Y70502D01*
X31966Y70535D01*
X33073Y71221D01*
X33300Y71175D01*
X34228Y71360D01*
X35014Y71886D01*
X35271Y72269D01*
X36271Y71966D01*
Y38434D01*
X32318Y34481D01*
X32100Y34525D01*
X31172Y34340D01*
X30386Y33814D01*
X29860Y33028D01*
X29675Y32100D01*
X29860Y31172D01*
X30386Y30386D01*
X31172Y29860D01*
X32100Y29675D01*
X33028Y29860D01*
X33814Y30386D01*
X34340Y31172D01*
X34525Y32100D01*
X34481Y32318D01*
X38881Y36719D01*
X39213Y37215D01*
X39329Y37800D01*
Y78767D01*
X53231Y92669D01*
X53370Y92876D01*
X56172D01*
Y97781D01*
X56172Y98419D01*
X56172Y99419D01*
Y102162D01*
X58281Y104271D01*
X58613Y104768D01*
X58729Y105353D01*
Y119300D01*
X58613Y119885D01*
X58281Y120381D01*
X55981Y122682D01*
X56024Y122900D01*
X55840Y123828D01*
X55314Y124614D01*
X54528Y125140D01*
X54185Y125208D01*
X53856Y126293D01*
X57856Y130293D01*
X83014D01*
X83612Y129366D01*
X83602Y129293D01*
X82886Y128814D01*
X82360Y128028D01*
X82175Y127100D01*
X82360Y126172D01*
X82886Y125386D01*
X83672Y124860D01*
X83810Y124833D01*
X83711Y123833D01*
X69085D01*
X68695Y123755D01*
X68364Y123534D01*
X68272Y123396D01*
X67285Y123557D01*
X67272Y123562D01*
Y124063D01*
X65000D01*
Y120898D01*
X64500D01*
Y120398D01*
X61728D01*
Y118370D01*
X61728Y117732D01*
X61728Y116732D01*
Y111039D01*
X67272D01*
Y111164D01*
X69012D01*
Y110941D01*
X74555D01*
Y115396D01*
X85128D01*
X85518Y115473D01*
X85849Y115694D01*
X86070Y116025D01*
X86148Y116416D01*
Y122813D01*
X86070Y123203D01*
X85849Y123534D01*
X85518Y123755D01*
X85128Y123833D01*
X85213Y124797D01*
X85528Y124860D01*
X86314Y125386D01*
X86840Y126172D01*
X86874Y126345D01*
X87936Y126556D01*
X87992Y126472D01*
X92472Y121992D01*
X91980Y121070D01*
X91764Y121113D01*
X90836Y120929D01*
X90049Y120403D01*
X89524Y119616D01*
X89339Y118689D01*
X89524Y117761D01*
X90049Y116974D01*
X89812Y115990D01*
X87156Y113335D01*
X84563D01*
Y107791D01*
X89319D01*
Y111172D01*
X92850Y114703D01*
X93182Y115199D01*
X93298Y115785D01*
Y116854D01*
X93478Y116974D01*
X94004Y117761D01*
X94188Y118689D01*
X94145Y118905D01*
X95067Y119397D01*
X96321Y118143D01*
X96817Y117811D01*
X97403Y117695D01*
X99672D01*
X99796Y117510D01*
X100582Y116985D01*
X101510Y116800D01*
X102438Y116985D01*
X103224Y117510D01*
X103750Y118297D01*
X103935Y119225D01*
X103750Y120152D01*
X103224Y120939D01*
X102438Y121465D01*
X101510Y121649D01*
X100582Y121465D01*
X99796Y120939D01*
X99672Y120754D01*
X98036D01*
X96442Y122348D01*
X97079Y123125D01*
X97726Y122693D01*
X98654Y122509D01*
X99581Y122693D01*
X100368Y123219D01*
X100893Y124005D01*
X101078Y124933D01*
X100893Y125861D01*
X100368Y126647D01*
X100649Y127620D01*
X112981Y139952D01*
X113279Y139812D01*
X113805Y139362D01*
X113658Y138620D01*
X113842Y137692D01*
X113946Y137537D01*
X114200Y136744D01*
X113691Y136256D01*
X113452Y136096D01*
X112927Y135310D01*
X112742Y134382D01*
X112927Y133454D01*
X113452Y132668D01*
X114239Y132142D01*
X114509Y131069D01*
X114449Y130979D01*
X114264Y130051D01*
X114449Y129123D01*
X114974Y128337D01*
X115761Y127811D01*
X116689Y127627D01*
X117617Y127811D01*
X118403Y128337D01*
X118929Y129123D01*
X119114Y130051D01*
X119070Y130270D01*
X120971Y132171D01*
X133867D01*
X138974Y127063D01*
X138994Y127016D01*
X138944Y126792D01*
X138028Y126201D01*
X137100Y126385D01*
X136172Y126201D01*
X135386Y125675D01*
X134860Y124889D01*
X134676Y123961D01*
X134860Y123033D01*
X135386Y122246D01*
X136172Y121721D01*
X137100Y121536D01*
X138028Y121721D01*
X138585Y122093D01*
X139378Y121810D01*
X139585Y121650D01*
Y121646D01*
X139701Y121060D01*
X140033Y120564D01*
X145977Y114620D01*
X145934Y114402D01*
X146118Y113474D01*
X146644Y112687D01*
X147430Y112162D01*
X148358Y111977D01*
X149286Y112162D01*
X150073Y112687D01*
X150598Y113474D01*
X150783Y114402D01*
X150598Y115329D01*
X150073Y116116D01*
X149807Y116294D01*
X149788Y117484D01*
X149974Y117608D01*
X150500Y118395D01*
X150684Y119323D01*
X150500Y120251D01*
X149974Y121037D01*
X149592Y121292D01*
Y123093D01*
X149476Y123678D01*
X149144Y124174D01*
X146979Y126339D01*
X147010Y126551D01*
X147669Y127439D01*
X161451D01*
X162174Y126705D01*
X162358Y125777D01*
X162884Y124990D01*
X163671Y124465D01*
X164598Y124280D01*
X165526Y124465D01*
X166313Y124990D01*
X166838Y125777D01*
X167023Y126705D01*
X166838Y127632D01*
X166313Y128419D01*
X165526Y128945D01*
X164598Y129129D01*
X164380Y129086D01*
X163416Y130050D01*
X162920Y130382D01*
X162335Y130498D01*
X148303D01*
X133396Y145404D01*
X132900Y145736D01*
X132315Y145852D01*
D02*
G37*
G36*
X64000Y124063D02*
X61728D01*
Y121398D01*
X64000D01*
Y124063D01*
D02*
G37*
G36*
X185358Y119324D02*
X182693D01*
Y117052D01*
X185358D01*
Y119324D01*
D02*
G37*
G36*
Y116052D02*
X182693D01*
Y113780D01*
X185358D01*
Y116052D01*
D02*
G37*
G36*
X194535Y108413D02*
X190098D01*
Y102795D01*
X194535D01*
Y108413D01*
D02*
G37*
G36*
X189098D02*
X184661D01*
Y102795D01*
X189098D01*
Y108413D01*
D02*
G37*
G36*
X145182Y101937D02*
X144254Y101752D01*
X143467Y101227D01*
X143278Y100944D01*
X138489D01*
X138432Y101030D01*
X137645Y101556D01*
X136717Y101740D01*
X135789Y101556D01*
X135003Y101030D01*
X134477Y100243D01*
X134293Y99316D01*
X134477Y98388D01*
X135003Y97601D01*
X135407Y97331D01*
X135642Y96473D01*
X135556Y96121D01*
X135160Y95528D01*
X134976Y94600D01*
X135160Y93672D01*
X135686Y92886D01*
X136472Y92360D01*
X137400Y92176D01*
X138328Y92360D01*
X139114Y92886D01*
X139438Y93371D01*
X143401D01*
X143467Y93270D01*
X144254Y92745D01*
X145182Y92560D01*
X146110Y92745D01*
X146896Y93270D01*
X147422Y94057D01*
X147606Y94985D01*
X147422Y95913D01*
X146896Y96699D01*
Y97798D01*
X147422Y98585D01*
X147606Y99512D01*
X147422Y100440D01*
X146896Y101227D01*
X146110Y101752D01*
X145182Y101937D01*
D02*
G37*
G36*
X81839Y113335D02*
X77083D01*
Y111423D01*
X77076Y111390D01*
X72343Y106657D01*
X71791Y105830D01*
X71597Y104854D01*
Y103279D01*
X71791Y102304D01*
X71791Y102304D01*
X71844Y102039D01*
X72369Y101252D01*
X73156Y100726D01*
X74084Y100542D01*
X75011Y100726D01*
X75798Y101252D01*
X76323Y102039D01*
X76324Y102039D01*
X76501Y102304D01*
X76695Y103279D01*
Y103798D01*
X80687Y107791D01*
X81839D01*
Y109309D01*
X82010Y110169D01*
Y110563D01*
X81839Y111423D01*
Y113335D01*
D02*
G37*
G36*
X189098Y101795D02*
X184661D01*
Y98489D01*
X183661Y97723D01*
X183423Y97770D01*
X182495Y97586D01*
X181708Y97060D01*
X181183Y96274D01*
X180998Y95346D01*
X181183Y94418D01*
X181708Y93631D01*
X182495Y93106D01*
X183423Y92921D01*
X184351Y93106D01*
X185137Y93631D01*
X185663Y94418D01*
X185847Y95346D01*
X185836Y95404D01*
X186470Y96177D01*
X189098D01*
Y101795D01*
D02*
G37*
G36*
X194535D02*
X190098D01*
Y96177D01*
X194535D01*
Y101795D01*
D02*
G37*
G36*
X255418Y98744D02*
X250391D01*
Y93323D01*
X255418D01*
Y98744D01*
D02*
G37*
G36*
X121783Y98250D02*
X120808Y98056D01*
X119981Y97503D01*
X119429Y96676D01*
X119235Y95701D01*
Y93330D01*
X119217D01*
Y88574D01*
X121046D01*
X121906Y88403D01*
X121988D01*
X122848Y88574D01*
X124760D01*
Y93330D01*
X124332D01*
Y95701D01*
X124138Y96676D01*
X123586Y97503D01*
X122759Y98056D01*
X121783Y98250D01*
D02*
G37*
G36*
X158533Y86563D02*
Y84291D01*
X161198D01*
Y86563D01*
X158533D01*
D02*
G37*
G36*
X98922Y111779D02*
X97994Y111595D01*
X97207Y111069D01*
X96682Y110283D01*
X96497Y109355D01*
X96682Y108427D01*
X97207Y107641D01*
X97419Y107499D01*
Y87629D01*
X61300D01*
X60715Y87513D01*
X60219Y87181D01*
X48919Y75881D01*
X48587Y75385D01*
X48471Y74800D01*
Y71838D01*
X48286Y71714D01*
X47760Y70928D01*
X47576Y70000D01*
X47760Y69072D01*
X48286Y68286D01*
X49072Y67760D01*
X50000Y67576D01*
X50928Y67760D01*
X51714Y68286D01*
X52240Y69072D01*
X52425Y70000D01*
X52240Y70928D01*
X51714Y71714D01*
X51529Y71838D01*
Y74167D01*
X55803Y78440D01*
X56725Y77948D01*
X56675Y77700D01*
X56860Y76772D01*
X57386Y75986D01*
X58172Y75460D01*
X59100Y75275D01*
X60028Y75460D01*
X60814Y75986D01*
X61340Y76772D01*
X61524Y77700D01*
X61340Y78628D01*
X60814Y79414D01*
X60028Y79940D01*
X59100Y80124D01*
X58852Y80075D01*
X58360Y80997D01*
X61933Y84571D01*
X87631D01*
X88045Y83571D01*
X84519Y80044D01*
X84187Y79548D01*
X84071Y78963D01*
Y68938D01*
X83886Y68814D01*
X83360Y68028D01*
X83175Y67100D01*
X83360Y66172D01*
X83886Y65386D01*
X84672Y64860D01*
X85600Y64675D01*
X86528Y64860D01*
X87314Y65386D01*
X87840Y66172D01*
X88024Y67100D01*
X87840Y68028D01*
X87314Y68814D01*
X87129Y68938D01*
Y78329D01*
X89021Y80221D01*
X89798Y79583D01*
X89560Y79228D01*
X89376Y78300D01*
X89560Y77372D01*
X90086Y76586D01*
X90872Y76060D01*
X91800Y75876D01*
X92728Y76060D01*
X93514Y76586D01*
X94040Y77372D01*
X94225Y78300D01*
X94040Y79228D01*
X93514Y80014D01*
X93402Y81292D01*
X93538Y81471D01*
X101217D01*
X101803Y81587D01*
X102299Y81919D01*
X102885Y82504D01*
X103003Y82681D01*
X103588Y82580D01*
X103979Y82342D01*
Y77773D01*
X104173Y76798D01*
X104725Y75971D01*
X106483Y74213D01*
X107309Y73661D01*
X108285Y73467D01*
X122079D01*
X122939Y73638D01*
X124850D01*
Y78394D01*
X122939D01*
X122079Y78565D01*
X109341D01*
X109076Y78829D01*
Y80362D01*
X109490Y80619D01*
X110076Y80790D01*
X110713Y80365D01*
X111640Y80180D01*
X112568Y80365D01*
X113355Y80891D01*
X113880Y81677D01*
X113933Y81942D01*
X119217D01*
Y81094D01*
X124760D01*
Y85849D01*
X119217D01*
Y85001D01*
X112875D01*
X112330Y84892D01*
X111640Y85029D01*
X110713Y84845D01*
X109926Y84319D01*
X109720Y84012D01*
X108549Y83987D01*
X108330Y84314D01*
X107503Y84867D01*
X106528Y85061D01*
X105552Y84867D01*
X104725Y84314D01*
X104332Y83727D01*
X103332Y84000D01*
Y97800D01*
X103518Y97923D01*
X104043Y98710D01*
X104228Y99638D01*
X104043Y100566D01*
X103518Y101352D01*
X102731Y101878D01*
X101803Y102062D01*
X101478Y101998D01*
X100478Y102724D01*
Y107535D01*
X100636Y107641D01*
X101162Y108427D01*
X101347Y109355D01*
X101162Y110283D01*
X100636Y111069D01*
X99850Y111595D01*
X98922Y111779D01*
D02*
G37*
G36*
X161198Y83291D02*
X158533D01*
Y81020D01*
X161198D01*
Y83291D01*
D02*
G37*
G36*
X134505Y89761D02*
X130453D01*
X129593Y89590D01*
X127484D01*
Y84834D01*
X129593D01*
X130453Y84663D01*
X133449D01*
X135252Y82860D01*
Y80921D01*
X140157D01*
X140795Y80921D01*
X141795Y80921D01*
X146701D01*
Y81144D01*
X148174D01*
Y81020D01*
X153867D01*
X154505Y81020D01*
X155505Y81020D01*
X157533D01*
Y83791D01*
Y86563D01*
X155505D01*
X154867Y86563D01*
X153867Y86563D01*
X148174D01*
Y86242D01*
X146701D01*
Y86465D01*
X141795D01*
X141157Y86465D01*
X140157Y86465D01*
X138857D01*
X136307Y89014D01*
X135480Y89567D01*
X134505Y89761D01*
D02*
G37*
G36*
X195800Y79629D02*
X160700D01*
X160115Y79513D01*
X159619Y79181D01*
X157618Y77181D01*
X157400Y77224D01*
X156472Y77040D01*
X155686Y76514D01*
X155160Y75728D01*
X154975Y74800D01*
X155160Y73872D01*
X155686Y73086D01*
X156472Y72560D01*
X156754Y72504D01*
X156656Y71504D01*
X154966Y71504D01*
X153966Y71504D01*
X148273D01*
Y71183D01*
X146799D01*
Y71406D01*
X141894D01*
X141256Y71406D01*
X140256Y71406D01*
X138955D01*
X136283Y74078D01*
X135456Y74630D01*
X134480Y74825D01*
X130543D01*
X129683Y74654D01*
X127575D01*
Y69898D01*
X129683D01*
X130543Y69727D01*
X133424D01*
X135350Y67801D01*
Y65862D01*
X140256D01*
X140894Y65862D01*
X141894Y65862D01*
X146799D01*
Y66085D01*
X148273D01*
Y65961D01*
X153966D01*
X154603Y65961D01*
X155603Y65961D01*
X157631D01*
Y68732D01*
X158131D01*
Y69232D01*
X161296D01*
Y71504D01*
X158144D01*
X158046Y72504D01*
X158328Y72560D01*
X159114Y73086D01*
X159640Y73872D01*
X159825Y74800D01*
X159781Y75018D01*
X161334Y76571D01*
X195167D01*
X201919Y69819D01*
X202415Y69487D01*
X203000Y69371D01*
X221662D01*
X221786Y69186D01*
X222572Y68660D01*
X223500Y68476D01*
X224428Y68660D01*
X225214Y69186D01*
X225740Y69972D01*
X225924Y70900D01*
X225740Y71828D01*
X225214Y72614D01*
X224428Y73140D01*
X223500Y73325D01*
X222572Y73140D01*
X221786Y72614D01*
X221662Y72429D01*
X203633D01*
X196881Y79181D01*
X196385Y79513D01*
X195800Y79629D01*
D02*
G37*
G36*
X73700Y81024D02*
X72772Y80840D01*
X71986Y80314D01*
X71460Y79528D01*
X71276Y78600D01*
X71460Y77672D01*
X71986Y76886D01*
X72772Y76360D01*
X73700Y76175D01*
X74628Y76360D01*
X75414Y76886D01*
X75940Y77672D01*
X76125Y78600D01*
X75940Y79528D01*
X75414Y80314D01*
X74628Y80840D01*
X73700Y81024D01*
D02*
G37*
G36*
X124850Y70913D02*
X119307D01*
Y68564D01*
X118307Y67924D01*
X117800Y68024D01*
X116872Y67840D01*
X116086Y67314D01*
X115560Y66528D01*
X115375Y65600D01*
X115560Y64672D01*
X116086Y63886D01*
X116872Y63360D01*
X117800Y63175D01*
X118728Y63360D01*
X119514Y63886D01*
X119549Y63938D01*
X120549Y63635D01*
Y60946D01*
X120666Y60361D01*
X120997Y59864D01*
X121579Y59283D01*
X121264Y58521D01*
X121107Y57335D01*
X121264Y56149D01*
X121721Y55043D01*
X122450Y54094D01*
X123399Y53366D01*
X124504Y52908D01*
X125690Y52752D01*
X126876Y52908D01*
X127981Y53366D01*
X128930Y54094D01*
X129658Y55043D01*
X130116Y56149D01*
X130272Y57335D01*
X130116Y58521D01*
X129658Y59626D01*
X128930Y60575D01*
X127981Y61303D01*
X126876Y61761D01*
X125690Y61917D01*
X124608Y61775D01*
X124442Y61810D01*
X123608Y62472D01*
Y66158D01*
X124850D01*
Y70913D01*
D02*
G37*
G36*
X161296Y68232D02*
X158631D01*
Y65961D01*
X161296D01*
Y68232D01*
D02*
G37*
G36*
X241100Y70324D02*
X240172Y70140D01*
X239386Y69614D01*
X238860Y68828D01*
X238675Y67900D01*
X238860Y66972D01*
X239386Y66186D01*
X240172Y65660D01*
X241100Y65475D01*
X242028Y65660D01*
X242814Y66186D01*
X243340Y66972D01*
X243525Y67900D01*
X243340Y68828D01*
X242814Y69614D01*
X242028Y70140D01*
X241100Y70324D01*
D02*
G37*
G36*
X170354Y61792D02*
Y57776D01*
X174371D01*
X174281Y58462D01*
X173823Y59567D01*
X173095Y60516D01*
X172146Y61244D01*
X171040Y61702D01*
X170354Y61792D01*
D02*
G37*
G36*
X169354D02*
X168668Y61702D01*
X167563Y61244D01*
X166614Y60516D01*
X165886Y59567D01*
X165428Y58462D01*
X165338Y57776D01*
X169354D01*
Y61792D01*
D02*
G37*
G36*
X20100Y62125D02*
X19172Y61940D01*
X18386Y61414D01*
X17860Y60628D01*
X17675Y59700D01*
X17860Y58772D01*
X18386Y57986D01*
X19172Y57460D01*
X20100Y57275D01*
X21028Y57460D01*
X21814Y57986D01*
X22340Y58772D01*
X22524Y59700D01*
X22340Y60628D01*
X21814Y61414D01*
X21028Y61940D01*
X20100Y62125D01*
D02*
G37*
G36*
X97787Y61957D02*
X96601Y61800D01*
X95496Y61343D01*
X94547Y60614D01*
X93819Y59665D01*
X93361Y58560D01*
X93205Y57374D01*
X93361Y56188D01*
X93819Y55083D01*
X94547Y54134D01*
X95496Y53405D01*
X96601Y52948D01*
X97787Y52792D01*
X98974Y52948D01*
X100079Y53405D01*
X101028Y54134D01*
X101756Y55083D01*
X102214Y56188D01*
X102370Y57374D01*
X102214Y58560D01*
X101756Y59665D01*
X101028Y60614D01*
X100079Y61343D01*
X98974Y61800D01*
X97787Y61957D01*
D02*
G37*
G36*
X81488D02*
X80302Y61800D01*
X79197Y61343D01*
X78248Y60614D01*
X77520Y59665D01*
X77062Y58560D01*
X76906Y57374D01*
X77062Y56188D01*
X77520Y55083D01*
X78248Y54134D01*
X79197Y53405D01*
X80302Y52948D01*
X81488Y52792D01*
X82674Y52948D01*
X83779Y53405D01*
X84728Y54134D01*
X85457Y55083D01*
X85915Y56188D01*
X86071Y57374D01*
X85915Y58560D01*
X85457Y59665D01*
X84728Y60614D01*
X83779Y61343D01*
X82674Y61800D01*
X81488Y61957D01*
D02*
G37*
G36*
X65189D02*
X64003Y61800D01*
X62898Y61343D01*
X61949Y60614D01*
X61220Y59665D01*
X60763Y58560D01*
X60606Y57374D01*
X60763Y56188D01*
X61220Y55083D01*
X61949Y54134D01*
X62898Y53405D01*
X64003Y52948D01*
X65189Y52792D01*
X66375Y52948D01*
X67480Y53405D01*
X68429Y54134D01*
X69157Y55083D01*
X69615Y56188D01*
X69771Y57374D01*
X69615Y58560D01*
X69157Y59665D01*
X68429Y60614D01*
X67480Y61343D01*
X66375Y61800D01*
X65189Y61957D01*
D02*
G37*
G36*
X48890D02*
X47704Y61800D01*
X46599Y61343D01*
X45649Y60614D01*
X44921Y59665D01*
X44463Y58560D01*
X44307Y57374D01*
X44463Y56188D01*
X44921Y55083D01*
X45649Y54134D01*
X46599Y53405D01*
X47704Y52948D01*
X48890Y52792D01*
X50076Y52948D01*
X51181Y53405D01*
X52130Y54134D01*
X52858Y55083D01*
X53316Y56188D01*
X53472Y57374D01*
X53316Y58560D01*
X52858Y59665D01*
X52130Y60614D01*
X51181Y61343D01*
X50076Y61800D01*
X48890Y61957D01*
D02*
G37*
G36*
X174371Y56776D02*
X170354D01*
Y52759D01*
X171040Y52849D01*
X172146Y53307D01*
X173095Y54035D01*
X173823Y54984D01*
X174281Y56090D01*
X174371Y56776D01*
D02*
G37*
G36*
X169354D02*
X165338D01*
X165428Y56090D01*
X165886Y54984D01*
X166614Y54035D01*
X167563Y53307D01*
X168668Y52849D01*
X169354Y52759D01*
Y56776D01*
D02*
G37*
G36*
X141989Y61917D02*
X140803Y61761D01*
X139698Y61303D01*
X138749Y60575D01*
X138021Y59626D01*
X137563Y58521D01*
X137407Y57335D01*
X137563Y56149D01*
X138021Y55043D01*
X138749Y54094D01*
X139698Y53366D01*
X140803Y52908D01*
X141989Y52752D01*
X143175Y52908D01*
X144280Y53366D01*
X145229Y54094D01*
X145958Y55043D01*
X146416Y56149D01*
X146572Y57335D01*
X146416Y58521D01*
X145958Y59626D01*
X145229Y60575D01*
X144280Y61303D01*
X143175Y61761D01*
X141989Y61917D01*
D02*
G37*
G36*
X186153Y61858D02*
X184968Y61702D01*
X183862Y61244D01*
X182913Y60516D01*
X182185Y59567D01*
X181727Y58462D01*
X181571Y57276D01*
X181727Y56090D01*
X182185Y54984D01*
X182913Y54035D01*
X183862Y53307D01*
X184968Y52849D01*
X186153Y52693D01*
X187340Y52849D01*
X188445Y53307D01*
X189394Y54035D01*
X190122Y54984D01*
X190580Y56090D01*
X190736Y57276D01*
X190580Y58462D01*
X190122Y59567D01*
X189394Y60516D01*
X188445Y61244D01*
X187340Y61702D01*
X186153Y61858D01*
D02*
G37*
G36*
X14472Y50724D02*
X12200D01*
Y48453D01*
X14472D01*
Y50724D01*
D02*
G37*
G36*
X11200D02*
X8928D01*
Y48453D01*
X11200D01*
Y50724D01*
D02*
G37*
G36*
X244963Y62893D02*
X244035Y62708D01*
X243248Y62182D01*
X242723Y61396D01*
X242538Y60468D01*
X242723Y59540D01*
X243248Y58754D01*
X243384Y58663D01*
Y51089D01*
X243445Y50782D01*
X243276Y49933D01*
X243461Y49005D01*
X243986Y48219D01*
X244773Y47693D01*
X245701Y47508D01*
X246629Y47693D01*
X247415Y48219D01*
X247941Y49005D01*
X248125Y49933D01*
X247941Y50861D01*
X247415Y51648D01*
X246629Y52173D01*
X246443Y52210D01*
Y58597D01*
X246677Y58754D01*
X247202Y59540D01*
X247387Y60468D01*
X247202Y61396D01*
X246677Y62182D01*
X245890Y62708D01*
X244963Y62893D01*
D02*
G37*
G36*
X98287Y45592D02*
Y41575D01*
X102304D01*
X102214Y42261D01*
X101756Y43366D01*
X101028Y44315D01*
X100079Y45043D01*
X98974Y45501D01*
X98287Y45592D01*
D02*
G37*
G36*
X97287D02*
X96601Y45501D01*
X95496Y45043D01*
X94547Y44315D01*
X93819Y43366D01*
X93361Y42261D01*
X93271Y41575D01*
X97287D01*
Y45592D01*
D02*
G37*
G36*
X126190Y45552D02*
Y41535D01*
X130207D01*
X130116Y42222D01*
X129658Y43327D01*
X128930Y44276D01*
X127981Y45004D01*
X126876Y45462D01*
X126190Y45552D01*
D02*
G37*
G36*
X125190D02*
X124504Y45462D01*
X123399Y45004D01*
X122450Y44276D01*
X121721Y43327D01*
X121264Y42222D01*
X121173Y41535D01*
X125190D01*
Y45552D01*
D02*
G37*
G36*
X20000Y46325D02*
X19072Y46140D01*
X18286Y45614D01*
X17760Y44828D01*
X17575Y43900D01*
X17760Y42972D01*
X18286Y42186D01*
X19072Y41660D01*
X20000Y41475D01*
X20928Y41660D01*
X21714Y42186D01*
X22240Y42972D01*
X22424Y43900D01*
X22240Y44828D01*
X21714Y45614D01*
X20928Y46140D01*
X20000Y46325D01*
D02*
G37*
G36*
X102304Y40575D02*
X98287D01*
Y36558D01*
X98974Y36648D01*
X100079Y37106D01*
X101028Y37835D01*
X101756Y38784D01*
X102214Y39889D01*
X102304Y40575D01*
D02*
G37*
G36*
X97287D02*
X93271D01*
X93361Y39889D01*
X93819Y38784D01*
X94547Y37835D01*
X95496Y37106D01*
X96601Y36648D01*
X97287Y36558D01*
Y40575D01*
D02*
G37*
G36*
X130207Y40535D02*
X126190D01*
Y36519D01*
X126876Y36609D01*
X127981Y37067D01*
X128930Y37795D01*
X129658Y38744D01*
X130116Y39849D01*
X130207Y40535D01*
D02*
G37*
G36*
X125190D02*
X121173D01*
X121264Y39849D01*
X121721Y38744D01*
X122450Y37795D01*
X123399Y37067D01*
X124504Y36609D01*
X125190Y36519D01*
Y40535D01*
D02*
G37*
G36*
X81488Y45657D02*
X80302Y45501D01*
X79197Y45043D01*
X78248Y44315D01*
X77520Y43366D01*
X77062Y42261D01*
X76906Y41075D01*
X77062Y39889D01*
X77520Y38784D01*
X78248Y37835D01*
X79197Y37106D01*
X80302Y36648D01*
X81488Y36492D01*
X82674Y36648D01*
X83779Y37106D01*
X84728Y37835D01*
X85457Y38784D01*
X85915Y39889D01*
X86071Y41075D01*
X85915Y42261D01*
X85457Y43366D01*
X84728Y44315D01*
X83779Y45043D01*
X82674Y45501D01*
X81488Y45657D01*
D02*
G37*
G36*
X65189D02*
X64003Y45501D01*
X62898Y45043D01*
X61949Y44315D01*
X61220Y43366D01*
X60763Y42261D01*
X60606Y41075D01*
X60763Y39889D01*
X61220Y38784D01*
X61949Y37835D01*
X62898Y37106D01*
X64003Y36648D01*
X65189Y36492D01*
X66375Y36648D01*
X67480Y37106D01*
X68429Y37835D01*
X69157Y38784D01*
X69615Y39889D01*
X69771Y41075D01*
X69615Y42261D01*
X69157Y43366D01*
X68429Y44315D01*
X67480Y45043D01*
X66375Y45501D01*
X65189Y45657D01*
D02*
G37*
G36*
X48890D02*
X47704Y45501D01*
X46599Y45043D01*
X45649Y44315D01*
X44921Y43366D01*
X44463Y42261D01*
X44307Y41075D01*
X44463Y39889D01*
X44921Y38784D01*
X45649Y37835D01*
X46599Y37106D01*
X47704Y36648D01*
X48890Y36492D01*
X50076Y36648D01*
X51181Y37106D01*
X52130Y37835D01*
X52858Y38784D01*
X53316Y39889D01*
X53472Y41075D01*
X53316Y42261D01*
X52858Y43366D01*
X52130Y44315D01*
X51181Y45043D01*
X50076Y45501D01*
X48890Y45657D01*
D02*
G37*
G36*
X141989Y45618D02*
X140803Y45462D01*
X139698Y45004D01*
X138749Y44276D01*
X138021Y43327D01*
X137563Y42222D01*
X137407Y41035D01*
X137563Y39849D01*
X138021Y38744D01*
X138749Y37795D01*
X139698Y37067D01*
X140803Y36609D01*
X141989Y36453D01*
X143175Y36609D01*
X144280Y37067D01*
X145229Y37795D01*
X145958Y38744D01*
X146416Y39849D01*
X146572Y41035D01*
X146416Y42222D01*
X145958Y43327D01*
X145229Y44276D01*
X144280Y45004D01*
X143175Y45462D01*
X141989Y45618D01*
D02*
G37*
G36*
X186153Y45559D02*
X184968Y45403D01*
X183862Y44945D01*
X182913Y44217D01*
X182185Y43268D01*
X181727Y42162D01*
X181571Y40976D01*
X181727Y39790D01*
X182185Y38685D01*
X182913Y37736D01*
X183862Y37008D01*
X184968Y36550D01*
X186153Y36394D01*
X187340Y36550D01*
X188445Y37008D01*
X189394Y37736D01*
X190122Y38685D01*
X190580Y39790D01*
X190736Y40976D01*
X190580Y42162D01*
X190122Y43268D01*
X189394Y44217D01*
X188445Y44945D01*
X187340Y45403D01*
X186153Y45559D01*
D02*
G37*
G36*
X169854D02*
X168668Y45403D01*
X167563Y44945D01*
X166614Y44217D01*
X165886Y43268D01*
X165428Y42162D01*
X165272Y40976D01*
X165428Y39790D01*
X165886Y38685D01*
X166614Y37736D01*
X167563Y37008D01*
X168668Y36550D01*
X169854Y36394D01*
X171040Y36550D01*
X172146Y37008D01*
X173095Y37736D01*
X173823Y38685D01*
X174281Y39790D01*
X174437Y40976D01*
X174281Y42162D01*
X173823Y43268D01*
X173095Y44217D01*
X172146Y44945D01*
X171040Y45403D01*
X169854Y45559D01*
D02*
G37*
G36*
X210847Y13872D02*
X208576D01*
Y11600D01*
X210847D01*
Y13872D01*
D02*
G37*
G36*
Y10600D02*
X208576D01*
Y8328D01*
X210847D01*
Y10600D01*
D02*
G37*
%LPD*%
G36*
X113516Y165287D02*
X97472D01*
Y171685D01*
X113516D01*
Y165287D01*
D02*
G37*
G36*
X61252Y143929D02*
X45209D01*
Y150327D01*
X61252D01*
Y143929D01*
D02*
G37*
G36*
X85128Y116416D02*
X74555D01*
Y116484D01*
X69085D01*
Y122813D01*
X85128D01*
Y116416D01*
D02*
G37*
G36*
X51292Y122315D02*
X51360Y121972D01*
X51886Y121186D01*
X52672Y120660D01*
X53600Y120475D01*
X53818Y120519D01*
X55671Y118667D01*
Y116724D01*
X53800D01*
Y113953D01*
X53300D01*
Y113453D01*
X50528D01*
Y111181D01*
X50528D01*
Y110819D01*
X50528D01*
Y105283D01*
X50528Y105276D01*
X50528D01*
X50628Y104324D01*
X50628D01*
Y99419D01*
X50628Y98781D01*
X50628Y97781D01*
Y94436D01*
X50621Y94397D01*
Y94384D01*
X36719Y80481D01*
X36387Y79985D01*
X36271Y79400D01*
Y75234D01*
X35271Y74931D01*
X35014Y75314D01*
X34228Y75840D01*
X33300Y76025D01*
X32372Y75840D01*
X32285Y75782D01*
X31285Y76316D01*
Y77646D01*
X47381Y93742D01*
X47713Y94238D01*
X47829Y94824D01*
Y120266D01*
X50207Y122644D01*
X51292Y122315D01*
D02*
G37*
%LPC*%
G36*
X52800Y116724D02*
X50528D01*
Y114453D01*
X52800D01*
Y116724D01*
D02*
G37*
%LPD*%
D11*
X53600Y122900D02*
X57200Y119300D01*
X29756Y78280D02*
X46300Y94824D01*
Y120900D02*
X57223Y131823D01*
X46300Y94824D02*
Y120900D01*
X137700Y94900D02*
X145097D01*
X137400Y94600D02*
X137700Y94900D01*
X43100Y133500D02*
X49300D01*
X57223Y131823D02*
X87532D01*
X57200Y105353D02*
Y119300D01*
X53400Y101553D02*
X57200Y105353D01*
X53400Y101553D02*
Y107947D01*
X53300Y108047D02*
X53400Y107947D01*
X37800Y79400D02*
X52150Y93750D01*
Y94397D02*
X53400Y95647D01*
X52150Y93750D02*
Y94397D01*
X85600Y67100D02*
Y78963D01*
X89637Y83000D01*
X101217D01*
X101803Y83586D01*
Y99638D01*
X50000Y74800D02*
X61300Y86100D01*
X98949Y86686D02*
Y109382D01*
X98363Y86100D02*
X98949Y86686D01*
X61300Y86100D02*
X98363D01*
X50000Y70000D02*
Y74800D01*
X62900Y138400D02*
Y141500D01*
X62728Y138228D02*
X62900Y138400D01*
X64000Y142600D02*
Y162900D01*
X62900Y141500D02*
X64000Y142600D01*
X65383Y164283D02*
X68783D01*
X64000Y162900D02*
X65383Y164283D01*
X37800Y37800D02*
Y79400D01*
X32100Y32100D02*
X37800Y37800D01*
X203000Y70900D02*
X223500D01*
X160700Y78100D02*
X195800D01*
X203000Y70900D01*
X157400Y74800D02*
X160700Y78100D01*
X69137Y159563D02*
X87237D01*
X96472Y150328D02*
X112906D01*
X87237Y159563D02*
X96472Y150328D01*
X112906D02*
X116174Y153596D01*
X69100Y159600D02*
X69137Y159563D01*
X120338Y133700D02*
X134500D01*
X141114Y121646D02*
Y127086D01*
X134500Y133700D02*
X141114Y127086D01*
X116689Y130051D02*
X120338Y133700D01*
X119509Y135700D02*
X135456D01*
X118191Y134382D02*
X119509Y135700D01*
X135456D02*
X148063Y123093D01*
X116075Y138713D02*
X116173Y138811D01*
X127098D01*
X115167Y134382D02*
X118191D01*
X141114Y121646D02*
X148358Y114402D01*
X148063Y119520D02*
Y123093D01*
X112009Y82605D02*
X112875Y83472D01*
X111640Y82605D02*
X112009D01*
X112875Y83472D02*
X121988D01*
X151340Y68634D02*
X151438Y68732D01*
X122079Y60946D02*
Y68535D01*
Y60946D02*
X125690Y57335D01*
X64500Y114205D02*
X64992Y113713D01*
X86941Y110563D02*
Y110957D01*
X91769Y115785D01*
Y118694D01*
X115090Y159390D02*
X115913Y158567D01*
Y153857D02*
Y158567D01*
Y153857D02*
X116174Y153596D01*
X93043Y162728D02*
X93339Y162433D01*
X41149Y141469D02*
X41641Y140976D01*
X244913Y51089D02*
Y60563D01*
Y51089D02*
X245701Y50302D01*
Y49933D02*
Y50302D01*
X192551Y116552D02*
X192566Y116567D01*
X162335Y128969D02*
X164598Y126705D01*
X147669Y128969D02*
X162335D01*
X132315Y144323D02*
X147669Y128969D01*
X115189Y144323D02*
X132315D01*
X98654Y127787D02*
X115189Y144323D01*
X98654Y124933D02*
Y127787D01*
X148063Y119520D02*
X148260Y119323D01*
X136717Y99316D02*
X136816Y99414D01*
X145083D01*
X145182Y99512D01*
X145097Y94900D02*
X145182Y94985D01*
X97403Y119224D02*
X101508D01*
X89074Y127554D02*
Y130281D01*
Y127554D02*
X97403Y119224D01*
X91808Y136592D02*
X91862Y136646D01*
X91808Y128718D02*
Y136592D01*
X91755Y128664D02*
X91808Y128718D01*
X87532Y131823D02*
X89074Y130281D01*
X29756Y68929D02*
Y78280D01*
D34*
X192551Y116552D02*
D03*
X185858D02*
D03*
X151438Y68732D02*
D03*
X158131D02*
D03*
X151340Y83791D02*
D03*
X158033D02*
D03*
D35*
X217253Y11100D02*
D03*
X211347D02*
D03*
X143929Y83693D02*
D03*
X138024D02*
D03*
X144028Y68634D02*
D03*
X138122D02*
D03*
X200130Y116567D02*
D03*
X206035D02*
D03*
X243535Y120209D02*
D03*
X237630D02*
D03*
D36*
X226016Y112630D02*
D03*
X53300Y113953D02*
D03*
Y108047D02*
D03*
X53400Y101553D02*
D03*
Y95647D02*
D03*
X71784Y113713D02*
D03*
Y119618D02*
D03*
X11700Y42047D02*
D03*
Y47953D02*
D03*
X100425Y162433D02*
D03*
Y168339D02*
D03*
X48161Y140976D02*
D03*
Y146882D02*
D03*
D37*
X130453Y87212D02*
D03*
X130543Y72276D02*
D03*
D38*
X121988Y90952D02*
D03*
Y83472D02*
D03*
X122079Y76016D02*
D03*
Y68535D02*
D03*
D39*
X83201Y119028D02*
D03*
X111350Y167854D02*
D03*
X58988Y146693D02*
D03*
D40*
X79461Y110563D02*
D03*
X86941D02*
D03*
X107610Y159390D02*
D03*
X115090D02*
D03*
X55248Y138228D02*
D03*
X62728D02*
D03*
D46*
X217253Y11100D02*
X228211D01*
X230564Y8747D01*
X238086D01*
X247087Y17748D01*
X250031D01*
X11700Y29752D02*
Y42047D01*
X11647Y29700D02*
X11700Y29752D01*
X17748Y17748D02*
Y23599D01*
X11647Y29700D02*
X17748Y23599D01*
X93339Y162433D02*
X100425D01*
X41641Y140976D02*
X48161D01*
X192566Y116567D02*
X200130D01*
D47*
X108285Y76016D02*
X122079D01*
X106528Y77773D02*
X108285Y76016D01*
X106528Y77773D02*
Y82512D01*
X107610Y156569D02*
Y159390D01*
X103870Y152828D02*
X107610Y156569D01*
X121906Y90952D02*
X121988D01*
X121783Y91074D02*
X121906Y90952D01*
X121783Y91074D02*
Y95701D01*
X143929Y83693D02*
X151241D01*
X151340Y83791D01*
X130453Y87212D02*
X134505D01*
X138024Y83693D01*
X144028Y68634D02*
X151340D01*
X130543Y72276D02*
X134480D01*
X138122Y68634D01*
X79461Y110169D02*
Y110563D01*
X74146Y104854D02*
X79461Y110169D01*
X74146Y103279D02*
Y104854D01*
X64992Y113713D02*
X71784D01*
X55248Y134579D02*
Y138228D01*
X49638Y128969D02*
X55248Y134579D01*
D49*
X248031Y19685D02*
D03*
X248031Y181102D02*
D03*
X19685D02*
D03*
Y19685D02*
D03*
D50*
X211331Y136764D02*
D03*
Y153063D02*
D03*
X227630D02*
D03*
Y136764D02*
D03*
X169854Y57276D02*
D03*
X186153D02*
D03*
Y40976D02*
D03*
X169854D02*
D03*
X125690Y57335D02*
D03*
X141989D02*
D03*
Y41035D02*
D03*
X125690D02*
D03*
X97787Y41075D02*
D03*
X48890D02*
D03*
X81488D02*
D03*
X65189D02*
D03*
X97787Y57374D02*
D03*
X48890D02*
D03*
X81488D02*
D03*
X65189D02*
D03*
D51*
X256528Y144913D02*
D03*
X178004Y12079D02*
D03*
X133840Y12138D02*
D03*
X73339Y12177D02*
D03*
D52*
X50000Y118400D02*
D03*
X53600Y122900D02*
D03*
X137400Y94600D02*
D03*
X183423Y95346D02*
D03*
X183800Y109800D02*
D03*
X49300Y133500D02*
D03*
X42300Y95500D02*
D03*
X43100Y133500D02*
D03*
X42500Y126500D02*
D03*
X117800Y65600D02*
D03*
X109906Y79394D02*
D03*
X91800Y78300D02*
D03*
X98100D02*
D03*
X59100Y77700D02*
D03*
X79300Y78500D02*
D03*
X73700Y78600D02*
D03*
X65800Y78000D02*
D03*
X68783Y164283D02*
D03*
X33300Y73600D02*
D03*
X45100Y78600D02*
D03*
X20100Y59700D02*
D03*
X13000Y52700D02*
D03*
X20300Y52900D02*
D03*
X20000Y43900D02*
D03*
X19900Y38000D02*
D03*
X164402Y74835D02*
D03*
X171291D02*
D03*
X157400Y74800D02*
D03*
X223500Y70900D02*
D03*
X49558Y128889D02*
D03*
X31900Y131000D02*
D03*
X33400Y138800D02*
D03*
X72200Y144000D02*
D03*
X103896Y152930D02*
D03*
X75600Y136900D02*
D03*
X79300Y137100D02*
D03*
X87000Y141200D02*
D03*
X82800Y145600D02*
D03*
X87000D02*
D03*
X72100Y140500D02*
D03*
X69100Y159600D02*
D03*
X50000Y70000D02*
D03*
X32100Y32100D02*
D03*
X85600Y67100D02*
D03*
X21500Y73800D02*
D03*
X16500Y73700D02*
D03*
X11500D02*
D03*
X14900Y83300D02*
D03*
X11300Y83200D02*
D03*
X259700Y50300D02*
D03*
X127148Y138807D02*
D03*
X116082Y138620D02*
D03*
X115167Y134382D02*
D03*
X116689Y130051D02*
D03*
X125991Y130186D02*
D03*
X98654Y124933D02*
D03*
X98922Y109355D02*
D03*
X101510Y119225D02*
D03*
X148358Y114402D02*
D03*
X148260Y119323D02*
D03*
X241100Y67900D02*
D03*
X215500Y82700D02*
D03*
X215547Y88301D02*
D03*
X207968Y82567D02*
D03*
Y88144D02*
D03*
X245701Y49933D02*
D03*
X244963Y60468D02*
D03*
X165339Y82827D02*
D03*
X147669Y108299D02*
D03*
X196882Y124047D02*
D03*
X157512Y141764D02*
D03*
Y147669D02*
D03*
Y153575D02*
D03*
Y159480D02*
D03*
Y165386D02*
D03*
Y177197D02*
D03*
X167354D02*
D03*
X157512Y171291D02*
D03*
X118142Y189008D02*
D03*
X127984D02*
D03*
X137827D02*
D03*
X157512Y126016D02*
D03*
X149638D02*
D03*
X157512Y131921D02*
D03*
X165386D02*
D03*
X173260D02*
D03*
X181134D02*
D03*
X189008D02*
D03*
X196882Y129953D02*
D03*
Y135858D02*
D03*
Y141764D02*
D03*
Y147669D02*
D03*
X236252Y165386D02*
D03*
X226410D02*
D03*
Y171291D02*
D03*
Y177197D02*
D03*
X216567Y165386D02*
D03*
Y171291D02*
D03*
Y177197D02*
D03*
Y183102D02*
D03*
Y189008D02*
D03*
X206724Y159480D02*
D03*
Y165386D02*
D03*
Y171291D02*
D03*
Y177197D02*
D03*
Y183102D02*
D03*
Y189008D02*
D03*
X187039Y159480D02*
D03*
Y165386D02*
D03*
Y171291D02*
D03*
X196882D02*
D03*
Y165386D02*
D03*
Y159480D02*
D03*
Y153575D02*
D03*
X187039D02*
D03*
X177197D02*
D03*
Y159480D02*
D03*
Y165386D02*
D03*
Y171291D02*
D03*
X196882Y177197D02*
D03*
X187039D02*
D03*
X177197D02*
D03*
X196882Y183102D02*
D03*
Y189008D02*
D03*
X187039Y183102D02*
D03*
Y189008D02*
D03*
X177197Y183102D02*
D03*
Y189008D02*
D03*
X167354Y183102D02*
D03*
Y189008D02*
D03*
X157512Y183102D02*
D03*
Y189008D02*
D03*
X147669Y183102D02*
D03*
Y189008D02*
D03*
X138477Y118800D02*
D03*
X255937Y82709D02*
D03*
X246094D02*
D03*
X255937Y88614D02*
D03*
X246094D02*
D03*
X237236Y42354D02*
D03*
X227394D02*
D03*
Y46291D02*
D03*
X205740Y10858D02*
D03*
Y16764D02*
D03*
Y22669D02*
D03*
X164402Y67945D02*
D03*
X171291D02*
D03*
X147669Y89598D02*
D03*
X94520Y99441D02*
D03*
Y94520D02*
D03*
Y89598D02*
D03*
X89598D02*
D03*
Y94520D02*
D03*
Y99441D02*
D03*
X126016Y170307D02*
D03*
X130937D02*
D03*
X135858D02*
D03*
X129953Y147669D02*
D03*
X135858Y152591D02*
D03*
X67945Y99441D02*
D03*
X73850Y94520D02*
D03*
X67945D02*
D03*
X73850Y89598D02*
D03*
X67945D02*
D03*
X81724Y169323D02*
D03*
X88614Y174244D02*
D03*
X81724D02*
D03*
X92551Y188024D02*
D03*
X85661D02*
D03*
X36449Y174244D02*
D03*
X45307D02*
D03*
X52197Y179165D02*
D03*
X43339D02*
D03*
X59087Y185071D02*
D03*
X49244D02*
D03*
X65976Y190976D02*
D03*
X56134D02*
D03*
X46291D02*
D03*
X17748Y164402D02*
D03*
X75500Y140500D02*
D03*
X72300Y136800D02*
D03*
X91300Y145600D02*
D03*
X29559Y139795D02*
D03*
Y147669D02*
D03*
Y155543D02*
D03*
X17748Y131921D02*
D03*
X9874D02*
D03*
X17748Y139795D02*
D03*
X9874D02*
D03*
X17748Y147669D02*
D03*
X9874D02*
D03*
X17748Y155543D02*
D03*
X9874D02*
D03*
X174800Y144400D02*
D03*
X136300Y147600D02*
D03*
X143500Y124282D02*
D03*
X185100Y126800D02*
D03*
X137100Y123961D02*
D03*
X84600Y127100D02*
D03*
X91764Y118689D02*
D03*
X91862Y136646D02*
D03*
X91755Y128664D02*
D03*
X39214Y130424D02*
D03*
X99914Y190624D02*
D03*
X77614Y192324D02*
D03*
X75200Y187400D02*
D03*
X63914Y181624D02*
D03*
X121783Y95701D02*
D03*
X111640Y82605D02*
D03*
X106528Y82512D02*
D03*
X74084Y102966D02*
D03*
X212630Y116567D02*
D03*
X164598Y126705D02*
D03*
X145182Y99512D02*
D03*
X136717Y99316D02*
D03*
X145182Y94985D02*
D03*
X101803Y99638D02*
D03*
X116174Y153596D02*
D03*
X29756Y68929D02*
D03*
D53*
X255918Y99244D02*
D03*
Y116173D02*
D03*
D54*
X64500Y114205D02*
D03*
Y120898D02*
D03*
X41149Y141469D02*
D03*
Y148161D02*
D03*
X93043Y162728D02*
D03*
Y169421D02*
D03*
D55*
X225416Y104854D02*
D03*
Y96980D02*
D03*
D56*
X238417Y97768D02*
D03*
Y109972D02*
D03*
D57*
X189598Y102295D02*
D03*
X214795D02*
D03*
M02*
