Removed Pin From Net: NetName=12V Pin=D14-3
Removed Pin From Net: NetName=12V Pin=D14-4
Removed Pin From Net: NetName=12V Pin=D16-3
Removed Pin From Net: NetName=12V Pin=D16-4
Removed Pin From Net: NetName=12V Pin=D17-3
Removed Pin From Net: NetName=12V Pin=D17-4
Removed Pin From Net: NetName=12V Pin=D18-3
Removed Pin From Net: NetName=12V Pin=D18-4
Removed Pin From Net: NetName=12V Pin=D19-3
Removed Pin From Net: NetName=12V Pin=D19-4
Removed Pin From Net: NetName=12V Pin=D20-3
Removed Pin From Net: NetName=12V Pin=D20-4
Removed Pin From Net: NetName=12V Pin=D21-3
Removed Pin From Net: NetName=12V Pin=D21-4
Removed Pin From Net: NetName=12V Pin=D22-3
Removed Pin From Net: NetName=12V Pin=D22-4
Removed Pin From Net: NetName=12V Pin=D23-3
Removed Pin From Net: NetName=12V Pin=D23-4
Removed Pin From Net: NetName=12V Pin=D24-3
Removed Pin From Net: NetName=12V Pin=D24-4
Removed Pin From Net: NetName=12V Pin=D25-3
Removed Pin From Net: NetName=12V Pin=D25-4
Removed Pin From Net: NetName=12V Pin=D26-3
Removed Pin From Net: NetName=12V Pin=D26-4
Removed Pin From Net: NetName=12V Pin=D27-3
Removed Pin From Net: NetName=12V Pin=D27-4
Removed Pin From Net: NetName=12V Pin=D28-3
Removed Pin From Net: NetName=12V Pin=D28-4
Removed Pin From Net: NetName=12V Pin=D29-3
Removed Pin From Net: NetName=12V Pin=D29-4
Removed Pin From Net: NetName=12V Pin=D30-3
Removed Pin From Net: NetName=12V Pin=D30-4
Removed Pin From Net: NetName=RED Pin=R26-1
Removed Pin From Net: NetName=GREEN Pin=R31-2
Removed Pin From Net: NetName=RED Pin=R33-1
Removed Pin From Net: NetName=RED Pin=R34-1
Removed Pin From Net: NetName=RED Pin=R35-1
Removed Pin From Net: NetName=RED Pin=R36-1
Removed Pin From Net: NetName=RED Pin=R37-1
Removed Pin From Net: NetName=GREEN Pin=R38-2
Removed Pin From Net: NetName=GREEN Pin=R39-2
Removed Pin From Net: NetName=GREEN Pin=R40-2
Removed Pin From Net: NetName=GREEN Pin=R41-2
Removed Pin From Net: NetName=GREEN Pin=R42-2
Removed Pin From Net: NetName=RED Pin=R43-1
Removed Pin From Net: NetName=RED Pin=R44-1
Removed Pin From Net: NetName=RED Pin=R45-1
Removed Pin From Net: NetName=RED Pin=R46-1
Removed Pin From Net: NetName=RED Pin=R47-1
Removed Pin From Net: NetName=GREEN Pin=R48-2
Removed Pin From Net: NetName=GREEN Pin=R49-2
Removed Pin From Net: NetName=GREEN Pin=R50-2
Removed Pin From Net: NetName=GREEN Pin=R51-2
Removed Pin From Net: NetName=GREEN Pin=R52-2
Removed Pin From Net: NetName=RED Pin=R53-1
Removed Pin From Net: NetName=RED Pin=R54-1
Removed Pin From Net: NetName=RED Pin=R55-1
Removed Pin From Net: NetName=RED Pin=R56-1
Removed Pin From Net: NetName=RED Pin=R57-1
Removed Pin From Net: NetName=GREEN Pin=R58-2
Removed Pin From Net: NetName=GREEN Pin=R59-2
Removed Pin From Net: NetName=GREEN Pin=R60-2
Removed Pin From Net: NetName=GREEN Pin=R61-2
Removed Pin From Net: NetName=GREEN Pin=R62-2
Removed Member From Class: ClassName=Tsal_Svetlo Member=CONN1
Removed Member From Class: ClassName=Tsal_Svetlo Member=D14
Removed Member From Class: ClassName=Tsal_Svetlo Member=D19
Removed Member From Class: ClassName=Tsal_Svetlo Member=R26
Removed Member From Class: ClassName=Tsal_Svetlo Member=R31
Added Component: Designator=CONN?(NYLON R/A MALE 4x2.54mm)
Add component (AddParameter): Name = "configuration & pole"; Value = "4x1 2.54mm"; VariantName = "[No Variations]"
Add component (AddParameter): Name = "Dielectric strength"; Value = ""; VariantName = "[No Variations]"
Add component (AddParameter): Name = "Manufacturer"; Value = "Kelco"; VariantName = "[No Variations]"
Add component (AddParameter): Name = "Manufacturer part number"; Value = "8761"; VariantName = "[No Variations]"
Add component (AddParameter): Name = "Mating contact part number"; Value = ""; VariantName = "[No Variations]"
Add component (AddParameter): Name = "Mating housing part number"; Value = ""; VariantName = "[No Variations]"
Add component (AddParameter): Name = "Pitch"; Value = ""; VariantName = "[No Variations]"
Add component (AddParameter): Name = "Supplier"; Value = "Kelco"; VariantName = "[No Variations]"
Add component (AddParameter): Name = "Supplier Part Number"; Value = "8761"; VariantName = "[No Variations]"
Add component (AddParameter): Name = "Type"; Value = ""; VariantName = "[No Variations]"
Added Pin To Net: NetName=NetCONN?_1 Pin=CONN?-1
Added Pin To Net: NetName=NetCONN?_1 Pin=F1-1
Added Net: Name=NetCONN?_1
Added Pin To Net: NetName=NetCONN?_2 Pin=CONN?-2
Added Pin To Net: NetName=NetCONN?_2 Pin=F2-1
Added Net: Name=NetCONN?_2
Added Pin To Net: NetName=NetCONN?_3 Pin=CONN?-3
Added Pin To Net: NetName=NetCONN?_3 Pin=F3-1
Added Net: Name=NetCONN?_3
