Replace Part LED1 LED_RGB_1.7V-3.6V_30ma_5050 in C:\Users\HP\Documents\Drumska Strela\Git i repozitorijum\FSRA_2023\fsra_2023_tsal\Tsal_Svetlo\Tsal_Svetlo.SchDoc with LED_RGB_1.7V-3.6V_30ma_5050 from FSRA_2023_Library.IntLib
Replace Part LED2 LED_RGB_1.7V-3.6V_30ma_5050 in C:\Users\HP\Documents\Drumska Strela\Git i repozitorijum\FSRA_2023\fsra_2023_tsal\Tsal_Svetlo\Tsal_Svetlo.SchDoc with LED_RGB_1.7V-3.6V_30ma_5050 from FSRA_2023_Library.IntLib
Replace Part LED3 LED_RGB_1.7V-3.6V_30ma_5050 in C:\Users\HP\Documents\Drumska Strela\Git i repozitorijum\FSRA_2023\fsra_2023_tsal\Tsal_Svetlo\Tsal_Svetlo.SchDoc with LED_RGB_1.7V-3.6V_30ma_5050 from FSRA_2023_Library.IntLib
Replace Part LED4 LED_RGB_1.7V-3.6V_30ma_5050 in C:\Users\HP\Documents\Drumska Strela\Git i repozitorijum\FSRA_2023\fsra_2023_tsal\Tsal_Svetlo\Tsal_Svetlo.SchDoc with LED_RGB_1.7V-3.6V_30ma_5050 from FSRA_2023_Library.IntLib
Replace Part LED5 LED_RGB_1.7V-3.6V_30ma_5050 in C:\Users\HP\Documents\Drumska Strela\Git i repozitorijum\FSRA_2023\fsra_2023_tsal\Tsal_Svetlo\Tsal_Svetlo.SchDoc with LED_RGB_1.7V-3.6V_30ma_5050 from FSRA_2023_Library.IntLib
Replace Part LED6 LED_RGB_1.7V-3.6V_30ma_5050 in C:\Users\HP\Documents\Drumska Strela\Git i repozitorijum\FSRA_2023\fsra_2023_tsal\Tsal_Svetlo\Tsal_Svetlo.SchDoc with LED_RGB_1.7V-3.6V_30ma_5050 from FSRA_2023_Library.IntLib
Replace Part LED7 LED_RGB_1.7V-3.6V_30ma_5050 in C:\Users\HP\Documents\Drumska Strela\Git i repozitorijum\FSRA_2023\fsra_2023_tsal\Tsal_Svetlo\Tsal_Svetlo.SchDoc with LED_RGB_1.7V-3.6V_30ma_5050 from FSRA_2023_Library.IntLib
Replace Part LED8 LED_RGB_1.7V-3.6V_30ma_5050 in C:\Users\HP\Documents\Drumska Strela\Git i repozitorijum\FSRA_2023\fsra_2023_tsal\Tsal_Svetlo\Tsal_Svetlo.SchDoc with LED_RGB_1.7V-3.6V_30ma_5050 from FSRA_2023_Library.IntLib
Replace Part LED9 LED_RGB_1.7V-3.6V_30ma_5050 in C:\Users\HP\Documents\Drumska Strela\Git i repozitorijum\FSRA_2023\fsra_2023_tsal\Tsal_Svetlo\Tsal_Svetlo.SchDoc with LED_RGB_1.7V-3.6V_30ma_5050 from FSRA_2023_Library.IntLib
Replace Part LED10 LED_RGB_1.7V-3.6V_30ma_5050 in C:\Users\HP\Documents\Drumska Strela\Git i repozitorijum\FSRA_2023\fsra_2023_tsal\Tsal_Svetlo\Tsal_Svetlo.SchDoc with LED_RGB_1.7V-3.6V_30ma_5050 from FSRA_2023_Library.IntLib
Replace Part LED11 LED_RGB_1.7V-3.6V_30ma_5050 in C:\Users\HP\Documents\Drumska Strela\Git i repozitorijum\FSRA_2023\fsra_2023_tsal\Tsal_Svetlo\Tsal_Svetlo.SchDoc with LED_RGB_1.7V-3.6V_30ma_5050 from FSRA_2023_Library.IntLib
Replace Part LED12 LED_RGB_1.7V-3.6V_30ma_5050 in C:\Users\HP\Documents\Drumska Strela\Git i repozitorijum\FSRA_2023\fsra_2023_tsal\Tsal_Svetlo\Tsal_Svetlo.SchDoc with LED_RGB_1.7V-3.6V_30ma_5050 from FSRA_2023_Library.IntLib
Replace Part LED13 LED_RGB_1.7V-3.6V_30ma_5050 in C:\Users\HP\Documents\Drumska Strela\Git i repozitorijum\FSRA_2023\fsra_2023_tsal\Tsal_Svetlo\Tsal_Svetlo.SchDoc with LED_RGB_1.7V-3.6V_30ma_5050 from FSRA_2023_Library.IntLib
Replace Part LED14 LED_RGB_1.7V-3.6V_30ma_5050 in C:\Users\HP\Documents\Drumska Strela\Git i repozitorijum\FSRA_2023\fsra_2023_tsal\Tsal_Svetlo\Tsal_Svetlo.SchDoc with LED_RGB_1.7V-3.6V_30ma_5050 from FSRA_2023_Library.IntLib
