Removed Pin From Net: NetName=GREEN_IN Pin=C1-1
Removed Pin From Net: NetName=RED_IN Pin=C2-1
Removed Pin From Net: NetName=GND Pin=R6-1
Removed Pin From Net: NetName=GREEN_FILT Pin=R6-2
Removed Pin From Net: NetName=GND Pin=R9-1
Removed Pin From Net: NetName=RED_FILT Pin=R9-2
Added Pin To Net: NetName=GND Pin=C1-1
Added Pin To Net: NetName=GND Pin=C2-1
Added Pin To Net: NetName=GREEN_FILT Pin=R6-1
Added Pin To Net: NetName=GREEN_IN Pin=R6-2
Added Pin To Net: NetName=RED_FILT Pin=R9-1
Added Pin To Net: NetName=RED_IN Pin=R9-2
