Removed Pin From Net: NetName=GND Pin=CONN1-1
Removed Pin From Net: NetName=RED_IN Pin=CONN1-2
Removed Pin From Net: NetName=GREEN_IN Pin=CONN1-3
Change Component Comment : Designator=LED1 Old Comment= New Comment=RGB
Change Component Comment : Designator=LED2 Old Comment= New Comment=RGB
Change Component Comment : Designator=LED3 Old Comment= New Comment=RGB
Change Component Comment : Designator=LED4 Old Comment= New Comment=RGB
Change Component Comment : Designator=LED5 Old Comment= New Comment=RGB
Change Component Comment : Designator=LED6 Old Comment= New Comment=RGB
Change Component Comment : Designator=LED7 Old Comment= New Comment=RGB
Change Component Comment : Designator=LED8 Old Comment= New Comment=RGB
Change Component Comment : Designator=LED9 Old Comment= New Comment=RGB
Change Component Comment : Designator=LED10 Old Comment= New Comment=RGB
Change Component Comment : Designator=LED11 Old Comment= New Comment=RGB
Change Component Comment : Designator=LED12 Old Comment= New Comment=RGB
Change Component Comment : Designator=LED13 Old Comment= New Comment=RGB
Change Component Comment : Designator=LED14 Old Comment= New Comment=RGB
Change Component Description : Designator=R2 Old Description=Otpornik, SMD, 1206, 1%, 270?, 0.5W New Description=Otpornik, SMD, 1206, 1%, 270?, 0.5W 
Change Component Description : Designator=R3 Old Description=Otpornik, SMD, 1206, 1%, 270?, 0.5W New Description=Otpornik, SMD, 1206, 1%, 270?, 0.5W 
Change Component Description : Designator=R4 Old Description=Otpornik, SMD, 1206, 1%, 270?, 0.5W New Description=Otpornik, SMD, 1206, 1%, 270?, 0.5W 
Change Component Description : Designator=R5 Old Description=Otpornik, SMD, 1206, 1%, 270?, 0.5W New Description=Otpornik, SMD, 1206, 1%, 270?, 0.5W 
Change Component Description : Designator=R7 Old Description=Otpornik, SMD, 1206, 1%, 270?, 0.5W New Description=Otpornik, SMD, 1206, 1%, 270?, 0.5W 
Change Component Description : Designator=R14 Old Description=Otpornik, SMD, 1206, 1%, 270?, 0.5W New Description=Otpornik, SMD, 1206, 1%, 270?, 0.5W 
Change Component Description : Designator=R16 Old Description=Otpornik, SMD, 1206, 1%, 270?, 0.5W New Description=Otpornik, SMD, 1206, 1%, 270?, 0.5W 
Change Component Description : Designator=R18 Old Description=Otpornik, SMD, 1206, 1%, 270?, 0.5W New Description=Otpornik, SMD, 1206, 1%, 270?, 0.5W 
Change Component Description : Designator=R24 Old Description=Otpornik, SMD, 1206, 1%, 270?, 0.5W New Description=Otpornik, SMD, 1206, 1%, 270?, 0.5W 
Change Component Description : Designator=R26 Old Description=Otpornik, SMD, 1206, 1%, 270?, 0.5W New Description=Otpornik, SMD, 1206, 1%, 270?, 0.5W 
Change Component Description : Designator=R20 Old Description=Otpornik, SMD, 1206, 1%, 332?, 0.5W New Description=Otpornik, SMD, 1206, 1%, 332?, 0.5W 
Change Component Description : Designator=R22 Old Description=Otpornik, SMD, 1206, 1%, 332?, 0.5W New Description=Otpornik, SMD, 1206, 1%, 332?, 0.5W 
Change Component Description : Designator=R28 Old Description=Otpornik, SMD, 1206, 1%, 332?, 0.5W New Description=Otpornik, SMD, 1206, 1%, 332?, 0.5W 
Change Component Description : Designator=R30 Old Description=Otpornik, SMD, 1206, 1%, 332?, 0.5W New Description=Otpornik, SMD, 1206, 1%, 332?, 0.5W 
Added Pin To Net: NetName=GREEN_IN Pin=CONN1-2
Added Pin To Net: NetName=RED_IN Pin=CONN1-3
Added Pin To Net: NetName=GND Pin=CONN1-4
Added Pin To Net: NetName=NetCONN1_1 Pin=CONN1-1
Added Pin To Net: NetName=NetCONN1_1 Pin=F1-1
Added Net: Name=NetCONN1_1
