Change Physical Footprint: Designator=CONN1 Old Footprint=NYLON R/A MALE 4x2.54mm New Footprint=NYLON R/A MALE 4x2.54mm
Change Physical Footprint: Designator=D1 Old Footprint=LED3528 New Footprint=LED3528
Change Physical Footprint: Designator=D2 Old Footprint=LED3528 New Footprint=LED3528
Change Physical Footprint: Designator=D3 Old Footprint=LED3528 New Footprint=LED3528
Change Physical Footprint: Designator=D4 Old Footprint=LED3528 New Footprint=LED3528
Change Physical Footprint: Designator=D5 Old Footprint=LED3528 New Footprint=LED3528
Change Physical Footprint: Designator=D6 Old Footprint=LED3528 New Footprint=LED3528
Change Physical Footprint: Designator=D7 Old Footprint=LED3528 New Footprint=LED3528
Change Physical Footprint: Designator=D8 Old Footprint=LED3528 New Footprint=LED3528
Change Physical Footprint: Designator=D9 Old Footprint=LED3528 New Footprint=LED3528
Change Physical Footprint: Designator=D10 Old Footprint=LED3528 New Footprint=LED3528
Change Physical Footprint: Designator=D11 Old Footprint=LED3528 New Footprint=LED3528
Change Physical Footprint: Designator=D12 Old Footprint=LED3528 New Footprint=LED3528
Change Physical Footprint: Designator=D13 Old Footprint=LED3528 New Footprint=LED3528
Change Physical Footprint: Designator=D15 Old Footprint=LED3528 New Footprint=LED3528
Change Physical Footprint: Designator=F1 Old Footprint=FUSE_0603 New Footprint=FUSE_0603
Change Physical Footprint: Designator=F2 Old Footprint=FUSE_0603 New Footprint=FUSE_0603
Change Physical Footprint: Designator=F3 Old Footprint=FUSE_0603 New Footprint=FUSE_0603
Change Physical Footprint: Designator=R1 Old Footprint=RES_0603 New Footprint=RES_0603
Change Physical Footprint: Designator=R2 Old Footprint=RES_0603 New Footprint=RES_0603
Change Physical Footprint: Designator=R3 Old Footprint=RES_1206 New Footprint=RES_1206
Change Physical Footprint: Designator=R4 Old Footprint=RES_1206 New Footprint=RES_1206
Change Physical Footprint: Designator=R5 Old Footprint=RES_1206 New Footprint=RES_1206
Change Physical Footprint: Designator=R6 Old Footprint=RES_1206 New Footprint=RES_1206
Change Physical Footprint: Designator=R7 Old Footprint=RES_1206 New Footprint=RES_1206
Change Physical Footprint: Designator=R8 Old Footprint=RES_1206 New Footprint=RES_1206
Change Physical Footprint: Designator=R9 Old Footprint=RES_1206 New Footprint=RES_1206
Change Physical Footprint: Designator=R10 Old Footprint=RES_1206 New Footprint=RES_1206
Change Physical Footprint: Designator=R11 Old Footprint=RES_1206 New Footprint=RES_1206
Change Physical Footprint: Designator=R12 Old Footprint=RES_1206 New Footprint=RES_1206
Change Physical Footprint: Designator=R13 Old Footprint=RES_1206 New Footprint=RES_1206
Change Physical Footprint: Designator=R14 Old Footprint=RES_1206 New Footprint=RES_1206
Change Physical Footprint: Designator=R15 Old Footprint=RES_1206 New Footprint=RES_1206
Change Physical Footprint: Designator=R16 Old Footprint=RES_1206 New Footprint=RES_1206
Change Physical Footprint: Designator=R17 Old Footprint=RES_1206 New Footprint=RES_1206
Change Physical Footprint: Designator=R18 Old Footprint=RES_1206 New Footprint=RES_1206
Change Physical Footprint: Designator=R19 Old Footprint=RES_1206 New Footprint=RES_1206
Change Physical Footprint: Designator=R20 Old Footprint=RES_1206 New Footprint=RES_1206
Change Physical Footprint: Designator=R21 Old Footprint=RES_1206 New Footprint=RES_1206
Change Physical Footprint: Designator=R22 Old Footprint=RES_1206 New Footprint=RES_1206
Change Physical Footprint: Designator=R23 Old Footprint=RES_1206 New Footprint=RES_1206
Change Physical Footprint: Designator=R24 Old Footprint=RES_1206 New Footprint=RES_1206
Change Physical Footprint: Designator=R25 Old Footprint=RES_1206 New Footprint=RES_1206
Change Physical Footprint: Designator=R27 Old Footprint=RES_1206 New Footprint=RES_1206
Change Physical Footprint: Designator=R28 Old Footprint=RES_1206 New Footprint=RES_1206
Change Physical Footprint: Designator=R29 Old Footprint=RES_1206 New Footprint=RES_1206
Change Physical Footprint: Designator=R30 Old Footprint=RES_1206 New Footprint=RES_1206
Change Physical Footprint: Designator=R32 Old Footprint=RES_1206 New Footprint=RES_1206
