Change component parameters: Designator = "LED1" ("LED1"); Footprint = "LED5050"; UniqueID = "\JWZNSWRA" ("\JWZNSWRA")
Change component parameters (AddParameter): Name = "Brightness"; Value = "600/1300/300mCd"; VariantName = "[No Variations]"
Change component parameters (AddParameter): Name = "Color"; Value = "RGB"; VariantName = "[No Variations]"
Change component parameters (AddParameter): Name = "Current"; Value = "30ma"; VariantName = "[No Variations]"
Change component parameters (AddParameter): Name = "Forward voltage"; Value = "1.7-3.6V"; VariantName = "[No Variations]"
Change component parameters (AddParameter): Name = "Manufacturer"; Value = "/"; VariantName = "[No Variations]"
Change component parameters (AddParameter): Name = "Manufacturer Part Number"; Value = "/"; VariantName = "[No Variations]"
Change component parameters (AddParameter): Name = "Supplier"; Value = "Mikro Princ"; VariantName = "[No Variations]"
Change component parameters (AddParameter): Name = "Supplier Part Number"; Value = "28905"; VariantName = "[No Variations]"
Change component parameters: Designator = "LED2" ("LED2"); Footprint = "LED5050"; UniqueID = "\JZZPISQS" ("\JZZPISQS")
Change component parameters (AddParameter): Name = "Brightness"; Value = "600/1300/300mCd"; VariantName = "[No Variations]"
Change component parameters (AddParameter): Name = "Color"; Value = "RGB"; VariantName = "[No Variations]"
Change component parameters (AddParameter): Name = "Current"; Value = "30ma"; VariantName = "[No Variations]"
Change component parameters (AddParameter): Name = "Forward voltage"; Value = "1.7-3.6V"; VariantName = "[No Variations]"
Change component parameters (AddParameter): Name = "Manufacturer"; Value = "/"; VariantName = "[No Variations]"
Change component parameters (AddParameter): Name = "Manufacturer Part Number"; Value = "/"; VariantName = "[No Variations]"
Change component parameters (AddParameter): Name = "Supplier"; Value = "Mikro Princ"; VariantName = "[No Variations]"
Change component parameters (AddParameter): Name = "Supplier Part Number"; Value = "28905"; VariantName = "[No Variations]"
Change component parameters: Designator = "LED3" ("LED3"); Footprint = "LED5050"; UniqueID = "\HFZRNTSB" ("\HFZRNTSB")
Change component parameters (AddParameter): Name = "Brightness"; Value = "600/1300/300mCd"; VariantName = "[No Variations]"
Change component parameters (AddParameter): Name = "Color"; Value = "RGB"; VariantName = "[No Variations]"
Change component parameters (AddParameter): Name = "Current"; Value = "30ma"; VariantName = "[No Variations]"
Change component parameters (AddParameter): Name = "Forward voltage"; Value = "1.7-3.6V"; VariantName = "[No Variations]"
Change component parameters (AddParameter): Name = "Manufacturer"; Value = "/"; VariantName = "[No Variations]"
Change component parameters (AddParameter): Name = "Manufacturer Part Number"; Value = "/"; VariantName = "[No Variations]"
Change component parameters (AddParameter): Name = "Supplier"; Value = "Mikro Princ"; VariantName = "[No Variations]"
Change component parameters (AddParameter): Name = "Supplier Part Number"; Value = "28905"; VariantName = "[No Variations]"
Change component parameters: Designator = "LED4" ("LED4"); Footprint = "LED5050"; UniqueID = "\XLECTWHP" ("\XLECTWHP")
Change component parameters (AddParameter): Name = "Brightness"; Value = "600/1300/300mCd"; VariantName = "[No Variations]"
Change component parameters (AddParameter): Name = "Color"; Value = "RGB"; VariantName = "[No Variations]"
Change component parameters (AddParameter): Name = "Current"; Value = "30ma"; VariantName = "[No Variations]"
Change component parameters (AddParameter): Name = "Forward voltage"; Value = "1.7-3.6V"; VariantName = "[No Variations]"
Change component parameters (AddParameter): Name = "Manufacturer"; Value = "/"; VariantName = "[No Variations]"
Change component parameters (AddParameter): Name = "Manufacturer Part Number"; Value = "/"; VariantName = "[No Variations]"
Change component parameters (AddParameter): Name = "Supplier"; Value = "Mikro Princ"; VariantName = "[No Variations]"
Change component parameters (AddParameter): Name = "Supplier Part Number"; Value = "28905"; VariantName = "[No Variations]"
Change component parameters: Designator = "LED5" ("LED5"); Footprint = "LED5050"; UniqueID = "\RSGATYXW" ("\RSGATYXW")
Change component parameters (AddParameter): Name = "Brightness"; Value = "600/1300/300mCd"; VariantName = "[No Variations]"
Change component parameters (AddParameter): Name = "Color"; Value = "RGB"; VariantName = "[No Variations]"
Change component parameters (AddParameter): Name = "Current"; Value = "30ma"; VariantName = "[No Variations]"
Change component parameters (AddParameter): Name = "Forward voltage"; Value = "1.7-3.6V"; VariantName = "[No Variations]"
Change component parameters (AddParameter): Name = "Manufacturer"; Value = "/"; VariantName = "[No Variations]"
Change component parameters (AddParameter): Name = "Manufacturer Part Number"; Value = "/"; VariantName = "[No Variations]"
Change component parameters (AddParameter): Name = "Supplier"; Value = "Mikro Princ"; VariantName = "[No Variations]"
Change component parameters (AddParameter): Name = "Supplier Part Number"; Value = "28905"; VariantName = "[No Variations]"
Change component parameters: Designator = "LED6" ("LED6"); Footprint = "LED5050"; UniqueID = "\XHBPEVVP" ("\XHBPEVVP")
Change component parameters (AddParameter): Name = "Brightness"; Value = "600/1300/300mCd"; VariantName = "[No Variations]"
Change component parameters (AddParameter): Name = "Color"; Value = "RGB"; VariantName = "[No Variations]"
Change component parameters (AddParameter): Name = "Current"; Value = "30ma"; VariantName = "[No Variations]"
Change component parameters (AddParameter): Name = "Forward voltage"; Value = "1.7-3.6V"; VariantName = "[No Variations]"
Change component parameters (AddParameter): Name = "Manufacturer"; Value = "/"; VariantName = "[No Variations]"
Change component parameters (AddParameter): Name = "Manufacturer Part Number"; Value = "/"; VariantName = "[No Variations]"
Change component parameters (AddParameter): Name = "Supplier"; Value = "Mikro Princ"; VariantName = "[No Variations]"
Change component parameters (AddParameter): Name = "Supplier Part Number"; Value = "28905"; VariantName = "[No Variations]"
Change component parameters: Designator = "LED7" ("LED7"); Footprint = "LED5050"; UniqueID = "\BFNHGATB" ("\BFNHGATB")
Change component parameters (AddParameter): Name = "Brightness"; Value = "600/1300/300mCd"; VariantName = "[No Variations]"
Change component parameters (AddParameter): Name = "Color"; Value = "RGB"; VariantName = "[No Variations]"
Change component parameters (AddParameter): Name = "Current"; Value = "30ma"; VariantName = "[No Variations]"
Change component parameters (AddParameter): Name = "Forward voltage"; Value = "1.7-3.6V"; VariantName = "[No Variations]"
Change component parameters (AddParameter): Name = "Manufacturer"; Value = "/"; VariantName = "[No Variations]"
Change component parameters (AddParameter): Name = "Manufacturer Part Number"; Value = "/"; VariantName = "[No Variations]"
Change component parameters (AddParameter): Name = "Supplier"; Value = "Mikro Princ"; VariantName = "[No Variations]"
Change component parameters (AddParameter): Name = "Supplier Part Number"; Value = "28905"; VariantName = "[No Variations]"
Change component parameters: Designator = "LED8" ("LED8"); Footprint = "LED5050"; UniqueID = "\GZUJFCMY" ("\GZUJFCMY")
Change component parameters (AddParameter): Name = "Brightness"; Value = "600/1300/300mCd"; VariantName = "[No Variations]"
Change component parameters (AddParameter): Name = "Color"; Value = "RGB"; VariantName = "[No Variations]"
Change component parameters (AddParameter): Name = "Current"; Value = "30ma"; VariantName = "[No Variations]"
Change component parameters (AddParameter): Name = "Forward voltage"; Value = "1.7-3.6V"; VariantName = "[No Variations]"
Change component parameters (AddParameter): Name = "Manufacturer"; Value = "/"; VariantName = "[No Variations]"
Change component parameters (AddParameter): Name = "Manufacturer Part Number"; Value = "/"; VariantName = "[No Variations]"
Change component parameters (AddParameter): Name = "Supplier"; Value = "Mikro Princ"; VariantName = "[No Variations]"
Change component parameters (AddParameter): Name = "Supplier Part Number"; Value = "28905"; VariantName = "[No Variations]"
Change component parameters: Designator = "LED9" ("LED9"); Footprint = "LED5050"; UniqueID = "\AISLVWCU" ("\AISLVWCU")
Change component parameters (AddParameter): Name = "Brightness"; Value = "600/1300/300mCd"; VariantName = "[No Variations]"
Change component parameters (AddParameter): Name = "Color"; Value = "RGB"; VariantName = "[No Variations]"
Change component parameters (AddParameter): Name = "Current"; Value = "30ma"; VariantName = "[No Variations]"
Change component parameters (AddParameter): Name = "Forward voltage"; Value = "1.7-3.6V"; VariantName = "[No Variations]"
Change component parameters (AddParameter): Name = "Manufacturer"; Value = "/"; VariantName = "[No Variations]"
Change component parameters (AddParameter): Name = "Manufacturer Part Number"; Value = "/"; VariantName = "[No Variations]"
Change component parameters (AddParameter): Name = "Supplier"; Value = "Mikro Princ"; VariantName = "[No Variations]"
Change component parameters (AddParameter): Name = "Supplier Part Number"; Value = "28905"; VariantName = "[No Variations]"
Change component parameters: Designator = "LED10" ("LED10"); Footprint = "LED5050"; UniqueID = "\OJEGHELM" ("\OJEGHELM")
Change component parameters (AddParameter): Name = "Brightness"; Value = "600/1300/300mCd"; VariantName = "[No Variations]"
Change component parameters (AddParameter): Name = "Color"; Value = "RGB"; VariantName = "[No Variations]"
Change component parameters (AddParameter): Name = "Current"; Value = "30ma"; VariantName = "[No Variations]"
Change component parameters (AddParameter): Name = "Forward voltage"; Value = "1.7-3.6V"; VariantName = "[No Variations]"
Change component parameters (AddParameter): Name = "Manufacturer"; Value = "/"; VariantName = "[No Variations]"
Change component parameters (AddParameter): Name = "Manufacturer Part Number"; Value = "/"; VariantName = "[No Variations]"
Change component parameters (AddParameter): Name = "Supplier"; Value = "Mikro Princ"; VariantName = "[No Variations]"
Change component parameters (AddParameter): Name = "Supplier Part Number"; Value = "28905"; VariantName = "[No Variations]"
Change component parameters: Designator = "LED11" ("LED11"); Footprint = "LED5050"; UniqueID = "\VWXJZNUZ" ("\VWXJZNUZ")
Change component parameters (AddParameter): Name = "Brightness"; Value = "600/1300/300mCd"; VariantName = "[No Variations]"
Change component parameters (AddParameter): Name = "Color"; Value = "RGB"; VariantName = "[No Variations]"
Change component parameters (AddParameter): Name = "Current"; Value = "30ma"; VariantName = "[No Variations]"
Change component parameters (AddParameter): Name = "Forward voltage"; Value = "1.7-3.6V"; VariantName = "[No Variations]"
Change component parameters (AddParameter): Name = "Manufacturer"; Value = "/"; VariantName = "[No Variations]"
Change component parameters (AddParameter): Name = "Manufacturer Part Number"; Value = "/"; VariantName = "[No Variations]"
Change component parameters (AddParameter): Name = "Supplier"; Value = "Mikro Princ"; VariantName = "[No Variations]"
Change component parameters (AddParameter): Name = "Supplier Part Number"; Value = "28905"; VariantName = "[No Variations]"
Change component parameters: Designator = "LED12" ("LED12"); Footprint = "LED5050"; UniqueID = "\EMDNJHSO" ("\EMDNJHSO")
Change component parameters (AddParameter): Name = "Brightness"; Value = "600/1300/300mCd"; VariantName = "[No Variations]"
Change component parameters (AddParameter): Name = "Color"; Value = "RGB"; VariantName = "[No Variations]"
Change component parameters (AddParameter): Name = "Current"; Value = "30ma"; VariantName = "[No Variations]"
Change component parameters (AddParameter): Name = "Forward voltage"; Value = "1.7-3.6V"; VariantName = "[No Variations]"
Change component parameters (AddParameter): Name = "Manufacturer"; Value = "/"; VariantName = "[No Variations]"
Change component parameters (AddParameter): Name = "Manufacturer Part Number"; Value = "/"; VariantName = "[No Variations]"
Change component parameters (AddParameter): Name = "Supplier"; Value = "Mikro Princ"; VariantName = "[No Variations]"
Change component parameters (AddParameter): Name = "Supplier Part Number"; Value = "28905"; VariantName = "[No Variations]"
Change component parameters: Designator = "LED13" ("LED13"); Footprint = "LED5050"; UniqueID = "\EXSBZJDK" ("\EXSBZJDK")
Change component parameters (AddParameter): Name = "Brightness"; Value = "600/1300/300mCd"; VariantName = "[No Variations]"
Change component parameters (AddParameter): Name = "Color"; Value = "RGB"; VariantName = "[No Variations]"
Change component parameters (AddParameter): Name = "Current"; Value = "30ma"; VariantName = "[No Variations]"
Change component parameters (AddParameter): Name = "Forward voltage"; Value = "1.7-3.6V"; VariantName = "[No Variations]"
Change component parameters (AddParameter): Name = "Manufacturer"; Value = "/"; VariantName = "[No Variations]"
Change component parameters (AddParameter): Name = "Manufacturer Part Number"; Value = "/"; VariantName = "[No Variations]"
Change component parameters (AddParameter): Name = "Supplier"; Value = "Mikro Princ"; VariantName = "[No Variations]"
Change component parameters (AddParameter): Name = "Supplier Part Number"; Value = "28905"; VariantName = "[No Variations]"
Change component parameters: Designator = "LED14" ("LED14"); Footprint = "LED5050"; UniqueID = "\VHSGOILA" ("\VHSGOILA")
Change component parameters (AddParameter): Name = "Brightness"; Value = "600/1300/300mCd"; VariantName = "[No Variations]"
Change component parameters (AddParameter): Name = "Color"; Value = "RGB"; VariantName = "[No Variations]"
Change component parameters (AddParameter): Name = "Current"; Value = "30ma"; VariantName = "[No Variations]"
Change component parameters (AddParameter): Name = "Forward voltage"; Value = "1.7-3.6V"; VariantName = "[No Variations]"
Change component parameters (AddParameter): Name = "Manufacturer"; Value = "/"; VariantName = "[No Variations]"
Change component parameters (AddParameter): Name = "Manufacturer Part Number"; Value = "/"; VariantName = "[No Variations]"
Change component parameters (AddParameter): Name = "Supplier"; Value = "Mikro Princ"; VariantName = "[No Variations]"
Change component parameters (AddParameter): Name = "Supplier Part Number"; Value = "28905"; VariantName = "[No Variations]"
Added Component: Designator=FID1(FIDUCIAL)
Added Component: Designator=FID2(FIDUCIAL)
Added Component: Designator=FID3(FIDUCIAL)
Added Component: Designator=FID4(FIDUCIAL)
Added Component: Designator=FID5(FIDUCIAL)
Added Component: Designator=FID6(FIDUCIAL)
