Removed Pin From Net: NetName=RED_IN Pin=F2-2
Removed Pin From Net: NetName=GREEN_IN Pin=F3-2
Removed Pin From Net: NetName=GREEN_IN Pin=R1-1
Removed Pin From Net: NetName=RED_IN Pin=R8-1
Added Pin To Net: NetName=GREEN_IN Pin=F2-2
Added Pin To Net: NetName=RED_IN Pin=F3-2
Added Pin To Net: NetName=RED_IN Pin=R1-1
Added Pin To Net: NetName=GREEN_IN Pin=R8-1
